"journal_name","year","volume","issue","author_name","num_authors","auth_num","title","abstract","doi","subfield","method","type"
"Journal of Speech, Language, and Hearing Research","2013",NA,NA,"L. Lancia",3,1,"Application of concepts from Cross-Recurrence Analysis in speech production: An overview and a comparison to other nonlinear methods",NA,"10.1044/2013_jslhr-s-12-0223","","",""
"Journal of Speech, Language, and Hearing Research","2013",NA,NA,"S. Fuchs",3,2,"Application of concepts from Cross-Recurrence Analysis in speech production: An overview and a comparison to other nonlinear methods",NA,"10.1044/2013_jslhr-s-12-0223","","",""
"Journal of Speech, Language, and Hearing Research","2013",NA,NA,"M. Tiede",3,3,"Application of concepts from Cross-Recurrence Analysis in speech production: An overview and a comparison to other nonlinear methods",NA,"10.1044/2013_jslhr-s-12-0223","","",""
"Journal of Speech, Language, and Hearing Research","2013",56,5,"N. Sadagopan",2,1,"Age Differences in Speech Motor Performance on a Novel Speech Task",NA,"10.1044/1092-4388(2013/12-0293)","","",""
"Journal of Speech, Language, and Hearing Research","2013",56,5,"A. Smith",2,2,"Age Differences in Speech Motor Performance on a Novel Speech Task",NA,"10.1044/1092-4388(2013/12-0293)","","",""
"Journal of Speech, Language, and Hearing Research","2013",56,5,"H. L. Storkel",5,1,"The Effect of Incremental Changes in Phonotactic Probability and Neighborhood Density on Word Learning by Preschool Children",NA,"10.1044/1092-4388(2013/12-0245)","","",""
"Journal of Speech, Language, and Hearing Research","2013",56,5,"D. E. Bontempo",5,2,"The Effect of Incremental Changes in Phonotactic Probability and Neighborhood Density on Word Learning by Preschool Children",NA,"10.1044/1092-4388(2013/12-0245)","","",""
"Journal of Speech, Language, and Hearing Research","2013",56,5,"A. J. Aschenbrenner",5,3,"The Effect of Incremental Changes in Phonotactic Probability and Neighborhood Density on Word Learning by Preschool Children",NA,"10.1044/1092-4388(2013/12-0245)","","",""
"Journal of Speech, Language, and Hearing Research","2013",56,5,"J. Maekawa",5,4,"The Effect of Incremental Changes in Phonotactic Probability and Neighborhood Density on Word Learning by Preschool Children",NA,"10.1044/1092-4388(2013/12-0245)","","",""
"Journal of Speech, Language, and Hearing Research","2013",56,5,"S.-Y. Lee",5,5,"The Effect of Incremental Changes in Phonotactic Probability and Neighborhood Density on Word Learning by Preschool Children",NA,"10.1044/1092-4388(2013/12-0245)","","",""
"Journal of Speech, Language, and Hearing Research","2013",56,4,"T. Gray",2,1,"A Theoretical Account of Lexical and Semantic Naming Deficits in Bilingual Aphasia",NA,"10.1044/1092-4388(2012/12-0091)","","",""
"Journal of Speech, Language, and Hearing Research","2013",56,4,"S. Kiran",2,2,"A Theoretical Account of Lexical and Semantic Naming Deficits in Bilingual Aphasia",NA,"10.1044/1092-4388(2012/12-0091)","","",""
"Journal of Speech, Language, and Hearing Research","2013",56,5,"J. Lam",2,1,"Intelligibility of Clear Speech: Effect of Instruction",NA,"10.1044/1092-4388(2013/12-0335)","","",""
"Journal of Speech, Language, and Hearing Research","2013",56,5,"K. Tjaden",2,2,"Intelligibility of Clear Speech: Effect of Instruction",NA,"10.1044/1092-4388(2013/12-0335)","","",""
"Journal of Speech, Language, and Hearing Research","2013",56,4,"M. B. Winn",3,1,"Roles of Voice Onset Time and F0 in Stop Consonant Voicing Perception: Effects of Masking Noise and Low-Pass Filtering",NA,"10.1044/1092-4388(2012/12-0086)","","",""
"Journal of Speech, Language, and Hearing Research","2013",56,4,"M. Chatterjee",3,2,"Roles of Voice Onset Time and F0 in Stop Consonant Voicing Perception: Effects of Masking Noise and Low-Pass Filtering",NA,"10.1044/1092-4388(2012/12-0086)","","",""
"Journal of Speech, Language, and Hearing Research","2013",56,4,"W. J. Idsardi",3,3,"Roles of Voice Onset Time and F0 in Stop Consonant Voicing Perception: Effects of Masking Noise and Low-Pass Filtering",NA,"10.1044/1092-4388(2012/12-0086)","","",""
"Journal of Speech, Language, and Hearing Research","2013",56,2,"M. A. Restrepo",3,1,"The Efficacy of a Vocabulary Intervention for Dual-Language Learners With Language Impairment",NA,"10.1044/1092-4388(2012/11-0173)x","","",""
"Journal of Speech, Language, and Hearing Research","2013",56,2,"G. P. Morgan",3,2,"The Efficacy of a Vocabulary Intervention for Dual-Language Learners With Language Impairment",NA,"10.1044/1092-4388(2012/11-0173)x","","",""
"Journal of Speech, Language, and Hearing Research","2013",56,2,"M. S. Thompson",3,3,"The Efficacy of a Vocabulary Intervention for Dual-Language Learners With Language Impairment",NA,"10.1044/1092-4388(2012/11-0173)x","","",""
"Journal of Speech, Language, and Hearing Research","2012",55,5,"A. Lowit",2,1,"Characterizing Intonation Deficit in Motor Speech Disorders: An Autosegmental-Metrical Analysis of Spontaneous Speech in Hypokinetic Dysarthria, Ataxic Dysarthria, and Foreign Accent Syndrome",NA,"10.1044/1092-4388(2012/11-0263)","","",""
"Journal of Speech, Language, and Hearing Research","2012",55,5,"A. Kuschmann",2,2,"Characterizing Intonation Deficit in Motor Speech Disorders: An Autosegmental-Metrical Analysis of Spontaneous Speech in Hypokinetic Dysarthria, Ataxic Dysarthria, and Foreign Accent Syndrome",NA,"10.1044/1092-4388(2012/11-0263)","","",""
"Journal of Speech, Language, and Hearing Research","2012",56,1,"K. Rudy",2,1,"The Effect of Anatomic Factors on Tongue Position Variability During Consonants",NA,"10.1044/1092-4388(2012/11-0218)","","",""
"Journal of Speech, Language, and Hearing Research","2012",56,1,"Y. Yunusova",2,2,"The Effect of Anatomic Factors on Tongue Position Variability During Consonants",NA,"10.1044/1092-4388(2012/11-0218)","","",""
"Journal of Speech, Language, and Hearing Research","2012",56,1,"W. J. Wilson",2,1,"Using Different Criteria to Diagnose (Central) Auditory Processing Disorder: How Big a Difference Does It Make?",NA,"10.1044/1092-4388(2012/11-0352)","","",""
"Journal of Speech, Language, and Hearing Research","2012",56,1,"W. Arnott",2,2,"Using Different Criteria to Diagnose (Central) Auditory Processing Disorder: How Big a Difference Does It Make?",NA,"10.1044/1092-4388(2012/11-0352)","","",""
"Journal of Speech, Language, and Hearing Research","2012",56,1,"A. P. Kaiser",2,1,"Parent-Implemented Enhanced Milieu Teaching With Preschool Children Who Have Intellectual Disabilities",NA,"10.1044/1092-4388(2012/11-0231)","","",""
"Journal of Speech, Language, and Hearing Research","2012",56,1,"M. Y. Roberts",2,2,"Parent-Implemented Enhanced Milieu Teaching With Preschool Children Who Have Intellectual Disabilities",NA,"10.1044/1092-4388(2012/11-0231)","","",""
"Journal of Speech, Language, and Hearing Research","2012",55,6,"R. Vang Christensen",2,1,"The Use and Productivity of Past Tense Morphology in Specific Language Impairment: An Examination of Danish",NA,"10.1044/1092-4388(2012/10-0350)","","",""
"Journal of Speech, Language, and Hearing Research","2012",55,6,"K. Hansson",2,2,"The Use and Productivity of Past Tense Morphology in Specific Language Impairment: An Examination of Danish",NA,"10.1044/1092-4388(2012/10-0350)","","",""
"Journal of Speech, Language, and Hearing Research","2012",55,6,"K. J. Ballard",5,1,"Developmental Trajectory for Production of Prosody: Lexical Stress Contrastivity in Children Ages 3 to 7 Years and in Adults",NA,"10.1044/1092-4388(2012/11-0257)","","",""
"Journal of Speech, Language, and Hearing Research","2012",55,6,"D. Djaja",5,2,"Developmental Trajectory for Production of Prosody: Lexical Stress Contrastivity in Children Ages 3 to 7 Years and in Adults",NA,"10.1044/1092-4388(2012/11-0257)","","",""
"Journal of Speech, Language, and Hearing Research","2012",55,6,"J. Arciuli",5,3,"Developmental Trajectory for Production of Prosody: Lexical Stress Contrastivity in Children Ages 3 to 7 Years and in Adults",NA,"10.1044/1092-4388(2012/11-0257)","","",""
"Journal of Speech, Language, and Hearing Research","2012",55,6,"D. G. H. James",5,4,"Developmental Trajectory for Production of Prosody: Lexical Stress Contrastivity in Children Ages 3 to 7 Years and in Adults",NA,"10.1044/1092-4388(2012/11-0257)","","",""
"Journal of Speech, Language, and Hearing Research","2012",55,6,"J. van Doorn",5,5,"Developmental Trajectory for Production of Prosody: Lexical Stress Contrastivity in Children Ages 3 to 7 Years and in Adults",NA,"10.1044/1092-4388(2012/11-0257)","","",""
"Journal of Speech, Language, and Hearing Research","2012",55,5,"L. Calandruccio",2,1,"New Sentence Recognition Materials Developed Using a Basic Non-Native English Lexicon",NA,"10.1044/1092-4388(2012/11-0260)","","",""
"Journal of Speech, Language, and Hearing Research","2012",55,5,"R. Smiljanic",2,2,"New Sentence Recognition Materials Developed Using a Basic Non-Native English Lexicon",NA,"10.1044/1092-4388(2012/11-0260)","","",""
"Journal of Speech, Language, and Hearing Research","2012",55,1,"S. O'Brian",4,1,"Measuring Outcomes Following the Camperdown Program for Stuttering: A Response to Dr. Ingham",NA,"10.1044/1092-4388(2011/11-0280)","","",""
"Journal of Speech, Language, and Hearing Research","2012",55,1,"A. Packman",4,2,"Measuring Outcomes Following the Camperdown Program for Stuttering: A Response to Dr. Ingham",NA,"10.1044/1092-4388(2011/11-0280)","","",""
"Journal of Speech, Language, and Hearing Research","2012",55,1,"M. Onslow",4,3,"Measuring Outcomes Following the Camperdown Program for Stuttering: A Response to Dr. Ingham",NA,"10.1044/1092-4388(2011/11-0280)","","",""
"Journal of Speech, Language, and Hearing Research","2012",55,1,"R. Menzies",4,4,"Measuring Outcomes Following the Camperdown Program for Stuttering: A Response to Dr. Ingham",NA,"10.1044/1092-4388(2011/11-0280)","","",""
"Journal of Speech, Language, and Hearing Research","2012",55,3,"K. Eggers",3,1,"The Efficiency of Attentional Networks in Children Who Stutter",NA,"10.1044/1092-4388(2011/10-0208)","","",""
"Journal of Speech, Language, and Hearing Research","2012",55,3,"L. F. De Nil",3,2,"The Efficiency of Attentional Networks in Children Who Stutter",NA,"10.1044/1092-4388(2011/10-0208)","","",""
"Journal of Speech, Language, and Hearing Research","2012",55,3,"B. R. H. Van den Bergh",3,3,"The Efficiency of Attentional Networks in Children Who Stutter",NA,"10.1044/1092-4388(2011/10-0208)","","",""
"Journal of Speech, Language, and Hearing Research","2012",55,3,"P. Souza",3,1,"Application of the Envelope Difference Index to Spectrally Sparse Speech",NA,"10.1044/1092-4388(2011/10-0301)","","",""
"Journal of Speech, Language, and Hearing Research","2012",55,3,"E. Hoover",3,2,"Application of the Envelope Difference Index to Spectrally Sparse Speech",NA,"10.1044/1092-4388(2011/10-0301)","","",""
"Journal of Speech, Language, and Hearing Research","2012",55,3,"F. Gallun",3,3,"Application of the Envelope Difference Index to Spectrally Sparse Speech",NA,"10.1044/1092-4388(2011/10-0301)","","",""
"Journal of Speech, Language, and Hearing Research","2012",55,4,"S. Maatta",5,1,"Developmental Trajectories of Early Communication Skills",NA,"10.1044/1092-4388(2011/10-0305)","","",""
"Journal of Speech, Language, and Hearing Research","2012",55,4,"M.-L. Laakso",5,2,"Developmental Trajectories of Early Communication Skills",NA,"10.1044/1092-4388(2011/10-0305)","","",""
"Journal of Speech, Language, and Hearing Research","2012",55,4,"A. Tolvanen",5,3,"Developmental Trajectories of Early Communication Skills",NA,"10.1044/1092-4388(2011/10-0305)","","",""
"Journal of Speech, Language, and Hearing Research","2012",55,4,"T. Ahonen",5,4,"Developmental Trajectories of Early Communication Skills",NA,"10.1044/1092-4388(2011/10-0305)","","",""
"Journal of Speech, Language, and Hearing Research","2012",55,4,"T. Aro",5,5,"Developmental Trajectories of Early Communication Skills",NA,"10.1044/1092-4388(2011/10-0305)","","",""
"Journal of Speech, Language, and Hearing Research","2012",55,2,"O. Hazrati",2,1,"Tackling the Combined Effects of Reverberation and Masking Noise Using Ideal Channel Selection",NA,"10.1044/1092-4388(2011/11-0073)","","",""
"Journal of Speech, Language, and Hearing Research","2012",55,2,"P. C. Loizou",2,2,"Tackling the Combined Effects of Reverberation and Masking Noise Using Ideal Channel Selection",NA,"10.1044/1092-4388(2011/11-0073)","","",""
"Journal of Speech, Language, and Hearing Research","2012",55,4,"R. S. Bartlett",5,1,"Fundamental Approaches in Molecular Biology for Communication Sciences and Disorders",NA,"10.1044/1092-4388(2011/11-0152)","","",""
"Journal of Speech, Language, and Hearing Research","2012",55,4,"M. E. Jette",5,2,"Fundamental Approaches in Molecular Biology for Communication Sciences and Disorders",NA,"10.1044/1092-4388(2011/11-0152)","","",""
"Journal of Speech, Language, and Hearing Research","2012",55,4,"S. N. King",5,3,"Fundamental Approaches in Molecular Biology for Communication Sciences and Disorders",NA,"10.1044/1092-4388(2011/11-0152)","","",""
"Journal of Speech, Language, and Hearing Research","2012",55,4,"A. Schaser",5,4,"Fundamental Approaches in Molecular Biology for Communication Sciences and Disorders",NA,"10.1044/1092-4388(2011/11-0152)","","",""
"Journal of Speech, Language, and Hearing Research","2012",55,4,"S. L. Thibeault",5,5,"Fundamental Approaches in Molecular Biology for Communication Sciences and Disorders",NA,"10.1044/1092-4388(2011/11-0152)","","",""
"Journal of Speech, Language, and Hearing Research","2012",55,2,"S. Patel",3,1,"Developing a Single Comparison Stimulus for Matching Breathy Voice Quality",NA,"10.1044/1092-4388(2011/10-0337)","","",""
"Journal of Speech, Language, and Hearing Research","2012",55,2,"R. Shrivastav",3,2,"Developing a Single Comparison Stimulus for Matching Breathy Voice Quality",NA,"10.1044/1092-4388(2011/10-0337)","","",""
"Journal of Speech, Language, and Hearing Research","2012",55,2,"D. A. Eddins",3,3,"Developing a Single Comparison Stimulus for Matching Breathy Voice Quality",NA,"10.1044/1092-4388(2011/10-0337)","","",""
"Journal of Speech, Language, and Hearing Research","2012",55,2,"L. A. Edmonds",2,1,"Item-Level Psychometrics and Predictors of Performance for Spanish/English Bilingual Speakers on An Object and Action Naming Battery",NA,"10.1044/1092-4388(2011/10-0307)","","",""
"Journal of Speech, Language, and Hearing Research","2012",55,2,"N. J. Donovan",2,2,"Item-Level Psychometrics and Predictors of Performance for Spanish/English Bilingual Speakers on An Object and Action Naming Battery",NA,"10.1044/1092-4388(2011/10-0307)","","",""
"Journal of Speech, Language, and Hearing Research","2011",55,1,"R. Wright",2,1,"Comparing Identification of Standardized and Regionally Valid Vowels",NA,"10.1044/1092-4388(2011/10-0278)","","",""
"Journal of Speech, Language, and Hearing Research","2011",55,1,"P. Souza",2,2,"Comparing Identification of Standardized and Regionally Valid Vowels",NA,"10.1044/1092-4388(2011/10-0278)","","",""
"Journal of Speech, Language, and Hearing Research","2011",54,6,"B. A. Lewis",9,1,"Literacy Outcomes of Children With Early Childhood Speech Sound Disorders: Impact of Endophenotypes",NA,"10.1044/1092-4388(2011/10-0124)","","",""
"Journal of Speech, Language, and Hearing Research","2011",54,6,"A. A. Avrich",9,2,"Literacy Outcomes of Children With Early Childhood Speech Sound Disorders: Impact of Endophenotypes",NA,"10.1044/1092-4388(2011/10-0124)","","",""
"Journal of Speech, Language, and Hearing Research","2011",54,6,"L. A. Freebairn",9,3,"Literacy Outcomes of Children With Early Childhood Speech Sound Disorders: Impact of Endophenotypes",NA,"10.1044/1092-4388(2011/10-0124)","","",""
"Journal of Speech, Language, and Hearing Research","2011",54,6,"A. J. Hansen",9,4,"Literacy Outcomes of Children With Early Childhood Speech Sound Disorders: Impact of Endophenotypes",NA,"10.1044/1092-4388(2011/10-0124)","","",""
"Journal of Speech, Language, and Hearing Research","2011",54,6,"L. E. Sucheston",9,5,"Literacy Outcomes of Children With Early Childhood Speech Sound Disorders: Impact of Endophenotypes",NA,"10.1044/1092-4388(2011/10-0124)","","",""
"Journal of Speech, Language, and Hearing Research","2011",54,6,"I. Kuo",9,6,"Literacy Outcomes of Children With Early Childhood Speech Sound Disorders: Impact of Endophenotypes",NA,"10.1044/1092-4388(2011/10-0124)","","",""
"Journal of Speech, Language, and Hearing Research","2011",54,6,"H. G. Taylor",9,7,"Literacy Outcomes of Children With Early Childhood Speech Sound Disorders: Impact of Endophenotypes",NA,"10.1044/1092-4388(2011/10-0124)","","",""
"Journal of Speech, Language, and Hearing Research","2011",54,6,"S. K. Iyengar",9,8,"Literacy Outcomes of Children With Early Childhood Speech Sound Disorders: Impact of Endophenotypes",NA,"10.1044/1092-4388(2011/10-0124)","","",""
"Journal of Speech, Language, and Hearing Research","2011",54,6,"C. M. Stein",9,9,"Literacy Outcomes of Children With Early Childhood Speech Sound Disorders: Impact of Endophenotypes",NA,"10.1044/1092-4388(2011/10-0124)","","",""
"Journal of Speech, Language, and Hearing Research","2011",54,6,"A. Craig",3,1,"Resilience and Stuttering: Factors That Protect People From the Adversity of Chronic Stuttering",NA,"10.1044/1092-4388(2011/10-0304)","","",""
"Journal of Speech, Language, and Hearing Research","2011",54,6,"E. Blumgart",3,2,"Resilience and Stuttering: Factors That Protect People From the Adversity of Chronic Stuttering",NA,"10.1044/1092-4388(2011/10-0304)","","",""
"Journal of Speech, Language, and Hearing Research","2011",54,6,"Y. Tran",3,3,"Resilience and Stuttering: Factors That Protect People From the Adversity of Chronic Stuttering",NA,"10.1044/1092-4388(2011/10-0304)","","",""
"Journal of Speech, Language, and Hearing Research","2011",54,5,"S. N. Awan",3,1,"Effects of Computer System and Vowel Loading on Measures of Nasalance",NA,"10.1044/1092-4388(2011/10-0201)","","",""
"Journal of Speech, Language, and Hearing Research","2011",54,5,"K. Omlor",3,2,"Effects of Computer System and Vowel Loading on Measures of Nasalance",NA,"10.1044/1092-4388(2011/10-0201)","","",""
"Journal of Speech, Language, and Hearing Research","2011",54,5,"C. R. Watts",3,3,"Effects of Computer System and Vowel Loading on Measures of Nasalance",NA,"10.1044/1092-4388(2011/10-0201)","","",""
"Journal of Speech, Language, and Hearing Research","2011",54,5,"E. M. Picou",3,1,"Visual Cues and Listening Effort: Individual Variability",NA,"10.1044/1092-4388(2011/10-0154)","","",""
"Journal of Speech, Language, and Hearing Research","2011",54,5,"T. A. Ricketts",3,2,"Visual Cues and Listening Effort: Individual Variability",NA,"10.1044/1092-4388(2011/10-0154)","","",""
"Journal of Speech, Language, and Hearing Research","2011",54,5,"B. W. Y. Hornsby",3,3,"Visual Cues and Listening Effort: Individual Variability",NA,"10.1044/1092-4388(2011/10-0154)","","",""
"Journal of Speech, Language, and Hearing Research","2011",54,4,"A. Pittman",1,1,"Children's Performance in Complex Listening Conditions: Effects of Hearing Loss and Digital Noise Reduction",NA,"10.1044/1092-4388(2010/10-0225)","","",""
"Journal of Speech, Language, and Hearing Research","2011",54,1,"S. E. Moss",1,1,"Research Integrity in Communication Sciences and Disorders: Preface",NA,"10.1044/1092-4388(2011/09-0266)","","",""
"Journal of Speech, Language, and Hearing Research","2010",54,4,"C. A. Dollaghan",2,1,"Bilingual Language Assessment: A Meta-Analysis of Diagnostic Accuracy",NA,"10.1044/1092-4388(2010/10-0093)","","",""
"Journal of Speech, Language, and Hearing Research","2010",54,4,"E. A. Horner",2,2,"Bilingual Language Assessment: A Meta-Analysis of Diagnostic Accuracy",NA,"10.1044/1092-4388(2010/10-0093)","","",""
"Journal of Speech, Language, and Hearing Research","2010",54,1,"J. Horner",2,1,"Research Ethics II: Mentoring, Collaboration, Peer Review, and Data Management and Ownership",NA,"10.1044/1092-4388(2010/09-0264)","","",""
"Journal of Speech, Language, and Hearing Research","2010",54,1,"F. D. Minifie",2,2,"Research Ethics II: Mentoring, Collaboration, Peer Review, and Data Management and Ownership",NA,"10.1044/1092-4388(2010/09-0264)","","",""
"Journal of Speech, Language, and Hearing Research","2010",54,3,"J. Kreiman",2,1,"Comparing Two Methods for Reducing Variability in Voice Quality Measurements",NA,"10.1044/1092-4388(2010/10-0083)","","",""
"Journal of Speech, Language, and Hearing Research","2010",54,3,"B. R. Gerratt",2,2,"Comparing Two Methods for Reducing Variability in Voice Quality Measurements",NA,"10.1044/1092-4388(2010/10-0083)","","",""
"Journal of Speech, Language, and Hearing Research","2010",54,2,"S. L. Pruitt",3,1,"Passive Participle Marking by African American English-Speaking Children Reared in Poverty",NA,"10.1044/1092-4388(2010/09-0134)","","",""
"Journal of Speech, Language, and Hearing Research","2010",54,2,"J. B. Oetting",3,2,"Passive Participle Marking by African American English-Speaking Children Reared in Poverty",NA,"10.1044/1092-4388(2010/09-0134)","","",""
"Journal of Speech, Language, and Hearing Research","2010",54,2,"M. Hegarty",3,3,"Passive Participle Marking by African American English-Speaking Children Reared in Poverty",NA,"10.1044/1092-4388(2010/09-0134)","","",""
"Journal of Speech, Language, and Hearing Research","2010",54,3,"K. Kaspar",2,1,"Rhythmic Versus Phonemic Interference in Delayed Auditory Feedback",NA,"10.1044/1092-4388(2010/10-0109)","","",""
"Journal of Speech, Language, and Hearing Research","2010",54,3,"H. Rubeling",2,2,"Rhythmic Versus Phonemic Interference in Delayed Auditory Feedback",NA,"10.1044/1092-4388(2010/10-0109)","","",""
"Journal of Speech, Language, and Hearing Research","2010",54,2,"T. L. Eadie",2,1,"The Effect of Listener Experience and Anchors on Judgments of Dysphonia",NA,"10.1044/1092-4388(2010/09-0205)","","",""
"Journal of Speech, Language, and Hearing Research","2010",54,2,"M. Kapsner-Smith",2,2,"The Effect of Listener Experience and Anchors on Judgments of Dysphonia",NA,"10.1044/1092-4388(2010/09-0205)","","",""
"Journal of Speech, Language, and Hearing Research","2010",53,5,"J. D. Anderson",1,1,"Response to Howell's (2010) Commentary",NA,"10.1044/1092-4388(2010/10-0091)","","",""
"Journal of Speech, Language, and Hearing Research","2010",54,1,"J. M. Carroll",2,1,"Spoken Word Classification in Children and Adults",NA,"10.1044/1092-4388(2010/08-0148)","","",""
"Journal of Speech, Language, and Hearing Research","2010",54,1,"J. M. Myers",2,2,"Spoken Word Classification in Children and Adults",NA,"10.1044/1092-4388(2010/08-0148)","","",""
"Journal of Speech, Language, and Hearing Research","2010",53,6,"L.-Y. Guo",3,1,"Effect of Subject Types on the Production of Auxiliary Is in Young English-Speaking Children",NA,"10.1044/1092-4388(2010/09-0058)","","",""
"Journal of Speech, Language, and Hearing Research","2010",53,6,"A. J. Owen",3,2,"Effect of Subject Types on the Production of Auxiliary Is in Young English-Speaking Children",NA,"10.1044/1092-4388(2010/09-0058)","","",""
"Journal of Speech, Language, and Hearing Research","2010",53,6,"J. B. Tomblin",3,3,"Effect of Subject Types on the Production of Auxiliary Is in Young English-Speaking Children",NA,"10.1044/1092-4388(2010/09-0058)","","",""
"Journal of Speech, Language, and Hearing Research","2010",53,6,"P. M. Palmer",4,1,"Swallow Characteristics in Patients With Oculopharyngeal Muscular Dystrophy",NA,"10.1044/1092-4388(2010/09-0068)","","",""
"Journal of Speech, Language, and Hearing Research","2010",53,6,"A. T. Neel",4,2,"Swallow Characteristics in Patients With Oculopharyngeal Muscular Dystrophy",NA,"10.1044/1092-4388(2010/09-0068)","","",""
"Journal of Speech, Language, and Hearing Research","2010",53,6,"G. Sprouls",4,3,"Swallow Characteristics in Patients With Oculopharyngeal Muscular Dystrophy",NA,"10.1044/1092-4388(2010/09-0068)","","",""
"Journal of Speech, Language, and Hearing Research","2010",53,6,"L. Morrison",4,4,"Swallow Characteristics in Patients With Oculopharyngeal Muscular Dystrophy",NA,"10.1044/1092-4388(2010/09-0068)","","",""
"Journal of Speech, Language, and Hearing Research","2010",53,6,"E. L. J. George",4,1,"Measuring the Effects of Reverberation and Noise on Sentence Intelligibility for Hearing-Impaired Listeners",NA,"10.1044/1092-4388(2010/09-0197)","","",""
"Journal of Speech, Language, and Hearing Research","2010",53,6,"S. T. Goverts",4,2,"Measuring the Effects of Reverberation and Noise on Sentence Intelligibility for Hearing-Impaired Listeners",NA,"10.1044/1092-4388(2010/09-0197)","","",""
"Journal of Speech, Language, and Hearing Research","2010",53,6,"J. M. Festen",4,3,"Measuring the Effects of Reverberation and Noise on Sentence Intelligibility for Hearing-Impaired Listeners",NA,"10.1044/1092-4388(2010/09-0197)","","",""
"Journal of Speech, Language, and Hearing Research","2010",53,6,"T. Houtgast",4,4,"Measuring the Effects of Reverberation and Noise on Sentence Intelligibility for Hearing-Impaired Listeners",NA,"10.1044/1092-4388(2010/09-0197)","","",""
"Journal of Speech, Language, and Hearing Research","2010",54,1,"W. J. Wilson",7,1,"The CHAPS, SIFTER, and TAPS-R as Predictors of (C)AP Skills and (C)APD",NA,"10.1044/1092-4388(2010/09-0273)","","",""
"Journal of Speech, Language, and Hearing Research","2010",54,1,"A. Jackson",7,2,"The CHAPS, SIFTER, and TAPS-R as Predictors of (C)AP Skills and (C)APD",NA,"10.1044/1092-4388(2010/09-0273)","","",""
"Journal of Speech, Language, and Hearing Research","2010",54,1,"A. Pender",7,3,"The CHAPS, SIFTER, and TAPS-R as Predictors of (C)AP Skills and (C)APD",NA,"10.1044/1092-4388(2010/09-0273)","","",""
"Journal of Speech, Language, and Hearing Research","2010",54,1,"C. Rose",7,4,"The CHAPS, SIFTER, and TAPS-R as Predictors of (C)AP Skills and (C)APD",NA,"10.1044/1092-4388(2010/09-0273)","","",""
"Journal of Speech, Language, and Hearing Research","2010",54,1,"J. Wilson",7,5,"The CHAPS, SIFTER, and TAPS-R as Predictors of (C)AP Skills and (C)APD",NA,"10.1044/1092-4388(2010/09-0273)","","",""
"Journal of Speech, Language, and Hearing Research","2010",54,1,"C. Heine",7,6,"The CHAPS, SIFTER, and TAPS-R as Predictors of (C)AP Skills and (C)APD",NA,"10.1044/1092-4388(2010/09-0273)","","",""
"Journal of Speech, Language, and Hearing Research","2010",54,1,"A. Khan",7,7,"The CHAPS, SIFTER, and TAPS-R as Predictors of (C)AP Skills and (C)APD",NA,"10.1044/1092-4388(2010/09-0273)","","",""
"Journal of Speech, Language, and Hearing Research","2010",53,5,"J. S. Laures-Gore",4,1,"Identifying Behavioral Measures of Stress in Individuals With Aphasia",NA,"10.1044/1092-4388(2010/09-0236)","","",""
"Journal of Speech, Language, and Hearing Research","2010",53,5,"M. F. DuBay",4,2,"Identifying Behavioral Measures of Stress in Individuals With Aphasia",NA,"10.1044/1092-4388(2010/09-0236)","","",""
"Journal of Speech, Language, and Hearing Research","2010",53,5,"M. C. Duff",4,3,"Identifying Behavioral Measures of Stress in Individuals With Aphasia",NA,"10.1044/1092-4388(2010/09-0236)","","",""
"Journal of Speech, Language, and Hearing Research","2010",53,5,"T. W. Buchanan",4,4,"Identifying Behavioral Measures of Stress in Individuals With Aphasia",NA,"10.1044/1092-4388(2010/09-0236)","","",""
"Journal of Speech, Language, and Hearing Research","2010",53,5,"K. Horley",3,1,"Emotional Prosody Perception and Production in Dementia of the Alzheimer's Type",NA,"10.1044/1092-4388(2010/09-0030)","","",""
"Journal of Speech, Language, and Hearing Research","2010",53,5,"A. Reid",3,2,"Emotional Prosody Perception and Production in Dementia of the Alzheimer's Type",NA,"10.1044/1092-4388(2010/09-0030)","","",""
"Journal of Speech, Language, and Hearing Research","2010",53,5,"D. Burnham",3,3,"Emotional Prosody Perception and Production in Dementia of the Alzheimer's Type",NA,"10.1044/1092-4388(2010/09-0030)","","",""
"Journal of Speech, Language, and Hearing Research","2010",53,4,"A. E. John",2,1,"Comprehension of the Communicative Intent Behind Pointing and Gazing Gestures by Young Children with Williams Syndrome or Down Syndrome",NA,"10.1044/1092-4388(2009/08-0234)","","",""
"Journal of Speech, Language, and Hearing Research","2010",53,4,"C. B. Mervis",2,2,"Comprehension of the Communicative Intent Behind Pointing and Gazing Gestures by Young Children with Williams Syndrome or Down Syndrome",NA,"10.1044/1092-4388(2009/08-0234)","","",""
"Journal of Speech, Language, and Hearing Research","2010",53,3,"A. M.- Y. Wong",5,1,"Differentiating Cantonese-Speaking Preschool Children With and Without SLI Using MLU and Lexical Diversity (D)",NA,"10.1044/1092-4388(2009/08-0195)","","",""
"Journal of Speech, Language, and Hearing Research","2010",53,3,"T. Klee",5,2,"Differentiating Cantonese-Speaking Preschool Children With and Without SLI Using MLU and Lexical Diversity (D)",NA,"10.1044/1092-4388(2009/08-0195)","","",""
"Journal of Speech, Language, and Hearing Research","2010",53,3,"S. F. Stokes",5,3,"Differentiating Cantonese-Speaking Preschool Children With and Without SLI Using MLU and Lexical Diversity (D)",NA,"10.1044/1092-4388(2009/08-0195)","","",""
"Journal of Speech, Language, and Hearing Research","2010",53,3,"P. Fletcher",5,4,"Differentiating Cantonese-Speaking Preschool Children With and Without SLI Using MLU and Lexical Diversity (D)",NA,"10.1044/1092-4388(2009/08-0195)","","",""
"Journal of Speech, Language, and Hearing Research","2010",53,3,"L. B. Leonard",5,5,"Differentiating Cantonese-Speaking Preschool Children With and Without SLI Using MLU and Lexical Diversity (D)",NA,"10.1044/1092-4388(2009/08-0195)","","",""
"Journal of Speech, Language, and Hearing Research","2010",53,2,"M. C. St-Pierre",2,1,"Reproduction of Inflectional Markers in French-Speaking Children With Reading Impairment",NA,"10.1044/1092-4388(2009/07-0251)","","",""
"Journal of Speech, Language, and Hearing Research","2010",53,2,"R. Beland",2,2,"Reproduction of Inflectional Markers in French-Speaking Children With Reading Impairment",NA,"10.1044/1092-4388(2009/07-0251)","","",""
"Journal of Speech, Language, and Hearing Research","2010",53,2,"Y. Hirata",2,1,"Effects of Lips and Hands on Auditory Learning of Second-Language Speech Sounds",NA,"10.1044/1092-4388(2009/08-0243)","","",""
"Journal of Speech, Language, and Hearing Research","2010",53,2,"S. D. Kelly",2,2,"Effects of Lips and Hands on Auditory Learning of Second-Language Speech Sounds",NA,"10.1044/1092-4388(2009/08-0243)","","",""
"Journal of Speech, Language, and Hearing Research","2010",53,1,"A. D. Warner-Czyz",3,1,"Accuracy of Consonant-Vowel Syllables in Young Cochlear Implant Recipients and Hearing Children in the Single-Word Period",NA,"10.1044/1092-4388(2009/0163)","","",""
"Journal of Speech, Language, and Hearing Research","2010",53,1,"B. L. Davis",3,2,"Accuracy of Consonant-Vowel Syllables in Young Cochlear Implant Recipients and Hearing Children in the Single-Word Period",NA,"10.1044/1092-4388(2009/0163)","","",""
"Journal of Speech, Language, and Hearing Research","2010",53,1,"P. F. MacNeilage",3,3,"Accuracy of Consonant-Vowel Syllables in Young Cochlear Implant Recipients and Hearing Children in the Single-Word Period",NA,"10.1044/1092-4388(2009/0163)","","",""
"Journal of Speech, Language, and Hearing Research","2010",53,1,"G. Conti-Ramsden",3,1,"Language and Social Factors in the Use of Cell Phone Technology by Adolescents With and Without Specific Language Impairment (SLI)",NA,"10.1044/1092-4388(2009/08-0241)","","",""
"Journal of Speech, Language, and Hearing Research","2010",53,1,"K. Durkin",3,2,"Language and Social Factors in the Use of Cell Phone Technology by Adolescents With and Without Specific Language Impairment (SLI)",NA,"10.1044/1092-4388(2009/08-0241)","","",""
"Journal of Speech, Language, and Hearing Research","2010",53,1,"Z. Simkin",3,3,"Language and Social Factors in the Use of Cell Phone Technology by Adolescents With and Without Specific Language Impairment (SLI)",NA,"10.1044/1092-4388(2009/08-0241)","","",""
"Journal of Speech, Language, and Hearing Research","2009",53,4,"J. K.- Y. Ma",3,1,"Intonation Contrast in Cantonese Speakers With Hypokinetic Dysarthria Associated With Parkinson's Disease",NA,"10.1044/1092-4388(2009/08-0216)","","",""
"Journal of Speech, Language, and Hearing Research","2009",53,4,"T. L. Whitehill",3,2,"Intonation Contrast in Cantonese Speakers With Hypokinetic Dysarthria Associated With Parkinson's Disease",NA,"10.1044/1092-4388(2009/08-0216)","","",""
"Journal of Speech, Language, and Hearing Research","2009",53,4,"S. Y.- S. So",3,3,"Intonation Contrast in Cantonese Speakers With Hypokinetic Dysarthria Associated With Parkinson's Disease",NA,"10.1044/1092-4388(2009/08-0216)","","",""
"Journal of Speech, Language, and Hearing Research","2009",53,3,"L. T. Fry",5,1,"Effect of Dystrophin Deficiency on Selected Intrinsic Laryngeal Muscles of the mdx Mouse",NA,"10.1044/1092-4388(2009/09-0010)","","",""
"Journal of Speech, Language, and Hearing Research","2009",53,3,"J. C. Stemple",5,2,"Effect of Dystrophin Deficiency on Selected Intrinsic Laryngeal Muscles of the mdx Mouse",NA,"10.1044/1092-4388(2009/09-0010)","","",""
"Journal of Speech, Language, and Hearing Research","2009",53,3,"R. D. Andreatta",5,3,"Effect of Dystrophin Deficiency on Selected Intrinsic Laryngeal Muscles of the mdx Mouse",NA,"10.1044/1092-4388(2009/09-0010)","","",""
"Journal of Speech, Language, and Hearing Research","2009",53,3,"A. L. Harrison",5,4,"Effect of Dystrophin Deficiency on Selected Intrinsic Laryngeal Muscles of the mdx Mouse",NA,"10.1044/1092-4388(2009/09-0010)","","",""
"Journal of Speech, Language, and Hearing Research","2009",53,3,"F. H. Andrade",5,5,"Effect of Dystrophin Deficiency on Selected Intrinsic Laryngeal Muscles of the mdx Mouse",NA,"10.1044/1092-4388(2009/09-0010)","","",""
"Journal of Speech, Language, and Hearing Research","2009",52,6,"F. Lindstrom",4,1,"Comparison of Two Methods of Voice Activity Detection in Field Studies",NA,"10.1044/1092-4388(2009/08-0175)","","",""
"Journal of Speech, Language, and Hearing Research","2009",52,6,"K. Ren",4,2,"Comparison of Two Methods of Voice Activity Detection in Field Studies",NA,"10.1044/1092-4388(2009/08-0175)","","",""
"Journal of Speech, Language, and Hearing Research","2009",52,6,"H. Li",4,3,"Comparison of Two Methods of Voice Activity Detection in Field Studies",NA,"10.1044/1092-4388(2009/08-0175)","","",""
"Journal of Speech, Language, and Hearing Research","2009",52,6,"K. P. Waye",4,4,"Comparison of Two Methods of Voice Activity Detection in Field Studies",NA,"10.1044/1092-4388(2009/08-0175)","","",""
"Journal of Speech, Language, and Hearing Research","2009",52,4,"N. V. Welham",6,1,"A Rat Excised Larynx Model of Vocal Fold Scar",NA,"10.1044/1092-4388(2009/08-0049)","","",""
"Journal of Speech, Language, and Hearing Research","2009",52,4,"D. W. Montequin",6,2,"A Rat Excised Larynx Model of Vocal Fold Scar",NA,"10.1044/1092-4388(2009/08-0049)","","",""
"Journal of Speech, Language, and Hearing Research","2009",52,4,"I. Tateya",6,3,"A Rat Excised Larynx Model of Vocal Fold Scar",NA,"10.1044/1092-4388(2009/08-0049)","","",""
"Journal of Speech, Language, and Hearing Research","2009",52,4,"T. Tateya",6,4,"A Rat Excised Larynx Model of Vocal Fold Scar",NA,"10.1044/1092-4388(2009/08-0049)","","",""
"Journal of Speech, Language, and Hearing Research","2009",52,4,"S. H. Choi",6,5,"A Rat Excised Larynx Model of Vocal Fold Scar",NA,"10.1044/1092-4388(2009/08-0049)","","",""
"Journal of Speech, Language, and Hearing Research","2009",52,4,"D. M. Bless",6,6,"A Rat Excised Larynx Model of Vocal Fold Scar",NA,"10.1044/1092-4388(2009/08-0049)","","",""
"Journal of Speech, Language, and Hearing Research","2009",52,6,"V. Hazan",5,1,"Speech Perception Abilities of Adults With Dyslexia: Is There Any Evidence for a True Deficit?",NA,"10.1044/1092-4388(2009/08-0220)","","",""
"Journal of Speech, Language, and Hearing Research","2009",52,6,"S. Messaoud-Galusi",5,2,"Speech Perception Abilities of Adults With Dyslexia: Is There Any Evidence for a True Deficit?",NA,"10.1044/1092-4388(2009/08-0220)","","",""
"Journal of Speech, Language, and Hearing Research","2009",52,6,"S. Rosen",5,3,"Speech Perception Abilities of Adults With Dyslexia: Is There Any Evidence for a True Deficit?",NA,"10.1044/1092-4388(2009/08-0220)","","",""
"Journal of Speech, Language, and Hearing Research","2009",52,6,"S. Nouwens",5,4,"Speech Perception Abilities of Adults With Dyslexia: Is There Any Evidence for a True Deficit?",NA,"10.1044/1092-4388(2009/08-0220)","","",""
"Journal of Speech, Language, and Hearing Research","2009",52,6,"B. Shakespeare",5,5,"Speech Perception Abilities of Adults With Dyslexia: Is There Any Evidence for a True Deficit?",NA,"10.1044/1092-4388(2009/08-0220)","","",""
"Journal of Speech, Language, and Hearing Research","2009",52,5,"Y. Saikachi",3,1,"Development and Perceptual Evaluation of Amplitude-Based F0 Control in Electrolarynx Speech",NA,"10.1044/1092-4388(2009/08-0167)","","",""
"Journal of Speech, Language, and Hearing Research","2009",52,5,"K. N. Stevens",3,2,"Development and Perceptual Evaluation of Amplitude-Based F0 Control in Electrolarynx Speech",NA,"10.1044/1092-4388(2009/08-0167)","","",""
"Journal of Speech, Language, and Hearing Research","2009",52,5,"R. E. Hillman",3,3,"Development and Perceptual Evaluation of Amplitude-Based F0 Control in Electrolarynx Speech",NA,"10.1044/1092-4388(2009/08-0167)","","",""
"Journal of Speech, Language, and Hearing Research","2009",52,5,"S. McLeod",2,1,"Epidemiology of Speech and Language Impairment in a Nationally Representative Sample of 4- to 5-Year-Old Children",NA,"10.1044/1092-4388(2009/08-0085)","","",""
"Journal of Speech, Language, and Hearing Research","2009",52,5,"L. J. Harrison",2,2,"Epidemiology of Speech and Language Impairment in a Nationally Representative Sample of 4- to 5-Year-Old Children",NA,"10.1044/1092-4388(2009/08-0085)","","",""
"Journal of Speech, Language, and Hearing Research","2009",52,2,"S. N. Awan",2,1,"Outcomes Measurement in Voice Disorders: Application of an Acoustic Index of Dysphonia Severity",NA,"10.1044/1092-4388(2009/08-0034)","","",""
"Journal of Speech, Language, and Hearing Research","2009",52,2,"N. Roy",2,2,"Outcomes Measurement in Voice Disorders: Application of an Acoustic Index of Dysphonia Severity",NA,"10.1044/1092-4388(2009/08-0034)","","",""
"Journal of Speech, Language, and Hearing Research","2009",52,2,"P. Howell",3,1,"The University College London Archive of Stuttered Speech (UCLASS)",NA,"10.1044/1092-4388(07-0129)","","",""
"Journal of Speech, Language, and Hearing Research","2009",52,2,"S. Davis",3,2,"The University College London Archive of Stuttered Speech (UCLASS)",NA,"10.1044/1092-4388(07-0129)","","",""
"Journal of Speech, Language, and Hearing Research","2009",52,2,"J. Bartrip",3,3,"The University College London Archive of Stuttered Speech (UCLASS)",NA,"10.1044/1092-4388(07-0129)","","",""
"Journal of Speech, Language, and Hearing Research","2005",48,4,"P. S. Popolo",1,1,"Adaptation of a Pocket PC for Use as a Wearable Voice Dosimeter",NA,"10.1044/1092-4388(2005/054)","","",""
"Journal of Speech, Language, and Hearing Research","2004",47,2,"C. A. Dollaghan",1,1,"Taxometric Analyses of Specific Language Impairment in 3- and 4-Year-Old Children",NA,"10.1044/1092-4388(2004/037)","","",""
"Journal of Speech, Language, and Hearing Research","2003",46,4,"I. R. Titze",1,1,"Vocal Dose Measures: Quantifying Accumulated Vibration Exposure in Vocal Fold Tissues",NA,"10.1044/1092-4388(2003/072)","","",""
"Journal of Speech, Language, and Hearing Research","2003",46,2,"K. C. Hustad",1,1,"Implementing Speech Supplementation Strategies: Effects on Intelligibility and Speech Rate of Individuals With Chronic Severe Dysarthria",NA,"10.1044/1092-4388(2003/038)","","",""
