"journal_name","year","volume","issue","author_name","num_authors","auth_num","title","abstract","doi","subfield","method","type"
"Morphology","2018",NA,NA,"Hannah Sande",1,1,"Cross-word morphologically conditioned scalar tone shift in Guébie",NA,"10.1007/s11525-018-9327-1","","",""
"Morphology","2018",NA,NA,"Livio Gaeta",2,1,"Stripping paradigmatic relations out of the syntax",NA,"10.1007/s11525-018-9326-2","","",""
"Morphology","2018",NA,NA,"Marco Angster",2,2,"Stripping paradigmatic relations out of the syntax",NA,"10.1007/s11525-018-9326-2","","",""
"Morphology","2018",NA,NA,"Maria Rosenberg",2,1,"Children’s novel NN compounding in Swedish diary data: function and form",NA,"10.1007/s11525-018-9325-3","","",""
"Morphology","2018",NA,NA,"Ingmarie Mellenius",2,2,"Children’s novel NN compounding in Swedish diary data: function and form",NA,"10.1007/s11525-018-9325-3","","",""
"Morphology","2018",28,2,"Melanie J. Bell",1,1,"Lexical deconstruction—review of Giegerich, H., Lexical structures: Compounding and the modules of grammar, Edinburgh Studies in Theoretical Linguistics, vol. 1: Edinburgh: Edinburgh University Press, 2015",NA,"10.1007/s11525-018-9324-4","","",""
"Morphology","2018",NA,NA,"Olivier Bonami",2,1,"Paradigm structure and predictability in derivational morphology",NA,"10.1007/s11525-018-9322-6","","",""
"Morphology","2018",NA,NA,"Jana Strnadová",2,2,"Paradigm structure and predictability in derivational morphology",NA,"10.1007/s11525-018-9322-6","","",""
"Morphology","2018",28,2,"Rochelle Lieber",2,1,"Aspect and modality in the interpretation of deverbal -er nominals in English",NA,"10.1007/s11525-018-9321-7","","",""
"Morphology","2018",28,2,"Marios Andreou",2,2,"Aspect and modality in the interpretation of deverbal -er nominals in English",NA,"10.1007/s11525-018-9321-7","","",""
"Morphology","2018",28,2,"Natalie Operstein",1,1,"Inflection in Lingua Franca: from Haedo’s Topographia to the Dictionnaire de la langue franque",NA,"10.1007/s11525-018-9320-8","","",""
"Morphology","2018",28,1,"Kaidi Lõo",5,1,"Production of Estonian case-inflected nouns shows whole-word frequency and paradigmatic effects",NA,"10.1007/s11525-017-9318-7","","",""
"Morphology","2018",28,1,"Juhani Järvikivi",5,2,"Production of Estonian case-inflected nouns shows whole-word frequency and paradigmatic effects",NA,"10.1007/s11525-017-9318-7","","",""
"Morphology","2018",28,1,"Fabian Tomaschek",5,3,"Production of Estonian case-inflected nouns shows whole-word frequency and paradigmatic effects",NA,"10.1007/s11525-017-9318-7","","",""
"Morphology","2018",28,1,"Benjamin V. Tucker",5,4,"Production of Estonian case-inflected nouns shows whole-word frequency and paradigmatic effects",NA,"10.1007/s11525-017-9318-7","","",""
"Morphology","2018",28,1,"R. Harald Baayen",5,5,"Production of Estonian case-inflected nouns shows whole-word frequency and paradigmatic effects",NA,"10.1007/s11525-017-9318-7","","",""
"Morphology","2018",28,1,"Albert Ortmann",1,1,"Connecting the typology and semantics of nominal possession: alienability splits and the morphology–semantics interface",NA,"10.1007/s11525-017-9319-6","","",""
"Morphology","2017",28,1,"Owen Edwards",1,1,"The morphology and phonology of metathesis in Amarasi",NA,"10.1007/s11525-017-9314-y","","",""
"Morphology","2017",27,4,"Jane Chandlee",1,1,"Computational locality in morphological maps",NA,"10.1007/s11525-017-9316-9","","",""
"Morphology","2017",27,4,"Olivier Bonami",2,1,"Computational methods for descriptive and theoretical morphology: a brief introduction",NA,"10.1007/s11525-017-9317-8","","",""
"Morphology","2017",27,4,"Benoît Sagot",2,2,"Computational methods for descriptive and theoretical morphology: a brief introduction",NA,"10.1007/s11525-017-9317-8","","",""
"Morphology","2017",27,4,"Atticus G. Harrigan",6,1,"Learning from the computational modelling of Plains Cree verbs",NA,"10.1007/s11525-017-9315-x","","",""
"Morphology","2017",27,4,"Katherine Schmirler",6,2,"Learning from the computational modelling of Plains Cree verbs",NA,"10.1007/s11525-017-9315-x","","",""
"Morphology","2017",27,4,"Antti Arppe",6,3,"Learning from the computational modelling of Plains Cree verbs",NA,"10.1007/s11525-017-9315-x","","",""
"Morphology","2017",27,4,"Lene Antonsen",6,4,"Learning from the computational modelling of Plains Cree verbs",NA,"10.1007/s11525-017-9315-x","","",""
"Morphology","2017",27,4,"Trond Trosterud",6,5,"Learning from the computational modelling of Plains Cree verbs",NA,"10.1007/s11525-017-9315-x","","",""
"Morphology","2017",27,4,"Arok Wolvengrey",6,6,"Learning from the computational modelling of Plains Cree verbs",NA,"10.1007/s11525-017-9315-x","","",""
"Morphology","2017",28,1,"Pavel Štichauer",1,1,"Lexical splits within periphrasis: mixed perfective auxiliation systems in Italo-Romance",NA,"10.1007/s11525-017-9313-z","","",""
"Morphology","2017",27,4,"Akira Watanabe",1,1,"The division of labor between syntax and morphology in the Kichean agent-focus construction",NA,"10.1007/s11525-017-9312-0","","",""
"Morphology","2017",27,4,"Marios Andreou",1,1,"Pius ten Hacken (ed.): The semantics of compounding: Cambridge University Press, Cambridge, 2016, 264 pp., ISBN 978-1-107-09970-8",NA,"10.1007/s11525-017-9311-1","","",""
"Morphology","2017",27,4,"Roland Mühlenbernd",2,1,"The grammaticalization cycle of the progressive: A game-theoretic analysis",NA,"10.1007/s11525-017-9310-2","","",""
"Morphology","2017",27,4,"Dankmar Enke",2,2,"The grammaticalization cycle of the progressive: A game-theoretic analysis",NA,"10.1007/s11525-017-9310-2","","",""
"Morphology","2017",27,4,"Berthold Crysmann",1,1,"Erratum to: Reduplication in a computational HPSG of Hausa",NA,"10.1007/s11525-017-9308-9","","",""
"Morphology","2017",27,4,"Itamar Kastner",2,1,"Blocking and paradigm gaps",NA,"10.1007/s11525-017-9309-8","","",""
"Morphology","2017",27,4,"Vera Zu",2,2,"Blocking and paradigm gaps",NA,"10.1007/s11525-017-9309-8","","",""
"Morphology","2017",27,4,"Sebastian Bank",1,1,"Assessing the typology of person portmanteaus",NA,"10.1007/s11525-017-9305-z","","",""
"Morphology","2017",27,4,"Robert Malouf",1,1,"Abstractive morphological learning with a recurrent neural network",NA,"10.1007/s11525-017-9307-x","","",""
"Morphology","2017",27,4,"Berthold Crysmann",1,1,"Reduplication in a computational HPSG of Hausa",NA,"10.1007/s11525-017-9306-y","","",""
"Morphology","2017",27,3,"Jochen Trommer",2,1,"Inflectional learning as local optimization",NA,"10.1007/s11525-017-9304-0","","",""
"Morphology","2017",27,3,"Sebastian Bank",2,2,"Inflectional learning as local optimization",NA,"10.1007/s11525-017-9304-0","","",""
"Morphology","2017",27,3,"John Mansfield",1,1,"Prosodic words in cyclic derivation: the strange case of Murrinhpatha compound verbs",NA,"10.1007/s11525-017-9303-1","","",""
"Morphology","2017",27,3,"Christina Y. Bethin",1,1,"The Belarusian Genitive plural: a case for reanalysis",NA,"10.1007/s11525-017-9302-2","","",""
"Morphology","2017",27,3,"Miloje Despić",1,1,"Investigations on mixed agreement: polite plurals, hybrid nouns and coordinate structures",NA,"10.1007/s11525-017-9301-3","","",""
"Morphology","2017",27,2,"Laura McPherson",1,1,"Multiple feature affixation in Seenku plural formation",NA,"10.1007/s11525-017-9300-4","","",""
"Morphology","2016",27,2,"Monica Macaulay",2,1,"Synchrony and diachrony in Menominee derivational morphology",NA,"10.1007/s11525-016-9299-y","","",""
"Morphology","2016",27,2,"Joseph Salmons",2,2,"Synchrony and diachrony in Menominee derivational morphology",NA,"10.1007/s11525-016-9299-y","","",""
"Morphology","2016",27,2,"Brigitte Pakendorf",1,1,"Lamunkhin Even evaluative morphology in cross-linguistic comparison",NA,"10.1007/s11525-016-9296-1","","",""
"Morphology","2016",27,2,"Henry Brice",1,1,"The root and word distinction: an experimental study of Hebrew denominal verbs",NA,"10.1007/s11525-016-9297-0","","",""
"Morphology","2016",27,1,"Sebastian Bank",1,1,"Segmentation: a remark on the Syncretism Principle",NA,"10.1007/s11525-016-9295-2","","",""
"Morphology","2016",27,1,"Erich R. Round",2,1,"The theory of feature systems: One feature versus two for Kayardild tense-aspect-mood",NA,"10.1007/s11525-016-9294-3","","",""
"Morphology","2016",27,1,"Greville G. Corbett",2,2,"The theory of feature systems: One feature versus two for Kayardild tense-aspect-mood",NA,"10.1007/s11525-016-9294-3","","",""
"Morphology","2016",27,1,"Igor Vinogradov",1,1,"From enclitic to prefix: diachrony of personal absolutive markers in Q’eqchi’",NA,"10.1007/s11525-016-9293-4","","",""
"Morphology","2016",27,1,"Klaus-Michael Köpcke",2,1,"Source- and product-oriented strategies in L2 acquisition of plural marking in German",NA,"10.1007/s11525-016-9292-5","","",""
"Morphology","2016",27,1,"Verena Wecker",2,2,"Source- and product-oriented strategies in L2 acquisition of plural marking in German",NA,"10.1007/s11525-016-9292-5","","",""
"Morphology","2016",26,NA,"Renate Raffelsiefen",1,1,"Allomorphy and the question of abstractness: evidence from German",NA,"10.1007/s11525-016-9289-0","","",""
"Morphology","2016",26,NA,"Mohamed Lahrouchi",2,1,"On diminutives and plurals in Moroccan Arabic",NA,"10.1007/s11525-016-9290-7","","",""
"Morphology","2016",26,NA,"Rachid Ridouane",2,2,"On diminutives and plurals in Moroccan Arabic",NA,"10.1007/s11525-016-9290-7","","",""
"Morphology","2016",26,2,"Melanie J. Bell",2,1,"Modelling semantic transparency",NA,"10.1007/s11525-016-9286-3","","",""
"Morphology","2016",26,2,"Martin Schäfer",2,2,"Modelling semantic transparency",NA,"10.1007/s11525-016-9286-3","","",""
"Morphology","2016",26,NA,"Radwa Fathi",2,1,"The gender assignment pattern of French nouns: Selection and allomorphy",NA,"10.1007/s11525-016-9287-2","","",""
"Morphology","2016",26,NA,"Jean Lowenstamm",2,2,"The gender assignment pattern of French nouns: Selection and allomorphy",NA,"10.1007/s11525-016-9287-2","","",""
"Morphology","2016",26,NA,"Noam Faust",2,1,"Allomorphy—its logic and limitations: opening remarks from the guest editors",NA,"10.1007/s11525-016-9291-6","","",""
"Morphology","2016",26,NA,"Nicola Lampitelli",2,2,"Allomorphy—its logic and limitations: opening remarks from the guest editors",NA,"10.1007/s11525-016-9291-6","","",""
"Morphology","2016",26,NA,"Lior Laks",2,1,"Component-dependent allomorphy and paradigm accessibility: evidence from Hebrew",NA,"10.1007/s11525-016-9288-1","","",""
"Morphology","2016",26,NA,"Evan-Gary Cohen",2,2,"Component-dependent allomorphy and paradigm accessibility: evidence from Hebrew",NA,"10.1007/s11525-016-9288-1","","",""
"Morphology","2016",26,NA,"Tobias Scheer",1,1,"Melody-free syntax and phonologically conditioned allomorphy",NA,"10.1007/s11525-016-9283-6","","",""
"Morphology","2016",26,2,"Sabine Arndt-Lappe",4,1,"Introduction: Modelling compound properties",NA,"10.1007/s11525-016-9285-4","","",""
"Morphology","2016",26,2,"Melanie J. Bell",4,2,"Introduction: Modelling compound properties",NA,"10.1007/s11525-016-9285-4","","",""
"Morphology","2016",26,2,"Martin Schäfer",4,3,"Introduction: Modelling compound properties",NA,"10.1007/s11525-016-9285-4","","",""
"Morphology","2016",26,2,"Barbara Schlücker",4,4,"Introduction: Modelling compound properties",NA,"10.1007/s11525-016-9285-4","","",""
"Morphology","2016",26,2,"Gero Kunter",2,1,"Morphological embedding and phonetic reduction: the case of triconstituent compounds",NA,"10.1007/s11525-016-9284-5","","",""
"Morphology","2016",26,2,"Ingo Plag",2,2,"Morphological embedding and phonetic reduction: the case of triconstituent compounds",NA,"10.1007/s11525-016-9284-5","","",""
"Morphology","2016",26,NA,"Daniel Asherov",2,1,"Multiple defaults: feminine -et and -a in Hebrew present tense",NA,"10.1007/s11525-016-9279-2","","",""
"Morphology","2016",26,NA,"Outi Bat-El",2,2,"Multiple defaults: feminine -et and -a in Hebrew present tense",NA,"10.1007/s11525-016-9279-2","","",""
"Morphology","2016",26,1,"Ariel Cohen",1,1,"A semantic explanation for the External Argument Generalization",NA,"10.1007/s11525-016-9281-8","","",""
"Morphology","2016",26,1,"Ingo Plag",1,1,"Note by the editors",NA,"10.1007/s11525-016-9282-7","","",""
"Morphology","2016",26,1,"Kunio Nishiyama",1,1,"The theoretical status of ren’yoo (stem) in Japanese verbal morphology",NA,"10.1007/s11525-016-9280-9","","",""
"Morphology","2016",26,NA,"Noam Faust",1,1,"Weak radicals, weak suppletion, and phonological indices in Semitic",NA,"10.1007/s11525-016-9278-3","","",""
"Morphology","2016",26,NA,"Amy Rose Deal",1,1,"Plural exponence in the Nez Perce DP: a DM analysis",NA,"10.1007/s11525-015-9277-9","","",""
"Morphology","2015",26,NA,"Beata Moskal",2,1,"Towards a theory without adjacency: hyper-contextual VI-rules",NA,"10.1007/s11525-015-9275-y","","",""
"Morphology","2015",26,NA,"Peter W. Smith",2,2,"Towards a theory without adjacency: hyper-contextual VI-rules",NA,"10.1007/s11525-015-9275-y","","",""
"Morphology","2015",26,NA,"Eva Zimmermann",1,1,"The power of a single representation: morphological tone and allomorphy",NA,"10.1007/s11525-015-9276-x","","",""
"Morphology","2015",25,4,"Karen Ferret",2,1,"French N-age instrumentals: semantic properties of the base verb",NA,"10.1007/s11525-015-9273-0","","",""
"Morphology","2015",25,4,"Florence Villoing",2,2,"French N-age instrumentals: semantic properties of the base verb",NA,"10.1007/s11525-015-9273-0","","",""
"Morphology","2015",26,2,"Pavel Štichauer",1,1,"Verb-noun compounds in Italian from the 16th century onwards: an increasing exploitation of an available word-formation pattern",NA,"10.1007/s11525-015-9274-z","","",""
"Morphology","2015",25,4,"Sabine Arndt-Lappe",2,1,"Introduction",NA,"10.1007/s11525-015-9272-1","","",""
"Morphology","2015",25,4,"Ingo Plag",2,2,"Introduction",NA,"10.1007/s11525-015-9272-1","","",""
"Morphology","2015",25,4,"Marion Schulte",1,1,"Polysemy and synonymy in derivational affixation—a case study of the English suffixes -age and -ery",NA,"10.1007/s11525-015-9271-2","","",""
"Morphology","2015",26,2,"Christina L. Gagné",2,1,"Written production of English compounds: effects of morphology and semantic transparency",NA,"10.1007/s11525-015-9265-0","","",""
"Morphology","2015",26,2,"Thomas L. Spalding",2,2,"Written production of English compounds: effects of morphology and semantic transparency",NA,"10.1007/s11525-015-9265-0","","",""
"Morphology","2015",26,1,"Sylvia L. R. Schreiner",2,1,"A future modal in Cherokee: a special case of distributed exponence",NA,"10.1007/s11525-015-9270-3","","",""
"Morphology","2015",26,1,"Megan Schildmier Stone",2,2,"A future modal in Cherokee: a special case of distributed exponence",NA,"10.1007/s11525-015-9270-3","","",""
"Morphology","2015",25,4,"Angeliki Efthymiou",3,1,"Exploring the polysemy of the Modern Greek prefix iper-",NA,"10.1007/s11525-015-9269-9","","",""
"Morphology","2015",25,4,"Georgia Fragaki",3,2,"Exploring the polysemy of the Modern Greek prefix iper-",NA,"10.1007/s11525-015-9269-9","","",""
"Morphology","2015",25,4,"Angelos Markos",3,3,"Exploring the polysemy of the Modern Greek prefix iper-",NA,"10.1007/s11525-015-9269-9","","",""
"Morphology","2015",25,4,"Elisabeth Gibert Sotelo",2,1,"Semantic approaches to the study of denominal parasynthetic verbs in Spanish",NA,"10.1007/s11525-015-9267-y","","",""
"Morphology","2015",25,4,"Isabel Pujol Payet",2,2,"Semantic approaches to the study of denominal parasynthetic verbs in Spanish",NA,"10.1007/s11525-015-9267-y","","",""
"Morphology","2015",26,1,"Christopher R. Green",2,1,"Somali wordhood and its relationship to prosodic structure",NA,"10.1007/s11525-015-9268-x","","",""
"Morphology","2015",26,1,"Michelle E. Morrison",2,2,"Somali wordhood and its relationship to prosodic structure",NA,"10.1007/s11525-015-9268-x","","",""
"Morphology","2015",25,4,"Marios Andreou",1,1,"Lexical negation in lexical semantics: the prefixes in- and dis-",NA,"10.1007/s11525-015-9266-z","","",""
"Morphology","2015",25,3,"Gila Zadok",2,1,"Inter-paradigm leveling in Hebrew verbal system",NA,"10.1007/s11525-015-9264-1","","",""
"Morphology","2015",25,3,"Outi Bat-El",2,2,"Inter-paradigm leveling in Hebrew verbal system",NA,"10.1007/s11525-015-9264-1","","",""
"Morphology","2015",25,3,"Lea Kawaletz",1,1,"Tanja Säily: Sociolinguistic Variation in English Derivational Productivity. Studies and Methods in Diachronic Corpus Linguistics: Helsinki: Société Néophilologique 2014 (Mémoires de la Société Néophilologique de Helsinki Nr. XCIV). VII + 284 Seiten",NA,"10.1007/s11525-015-9263-2","","",""
"Morphology","2015",25,2,"Geert Booij",1,1,"Sharon Inkelas, The interplay of morphology and phonology. (Oxford surveys in syntax and morphology, 8): Oxford: Oxford University Press, 2014, xix +422 pp., ISBN 978-0-19-928048-3 (pbk.)",NA,"10.1007/s11525-015-9262-3","","",""
"Morphology","2015",25,3,"Vassilios Spyropoulos",3,1,"Verbalizers leave marks: evidence from Greek",NA,"10.1007/s11525-015-9260-5","","",""
"Morphology","2015",25,3,"Anthi Revithiadou",3,2,"Verbalizers leave marks: evidence from Greek",NA,"10.1007/s11525-015-9260-5","","",""
"Morphology","2015",25,3,"Phoevos Panagiotidis",3,3,"Verbalizers leave marks: evidence from Greek",NA,"10.1007/s11525-015-9260-5","","",""
"Morphology","2015",25,4,"Rochelle Lieber",1,1,"The semantics of transposition",NA,"10.1007/s11525-015-9261-4","","",""
"Morphology","2015",25,3,"Dorit Ravid",2,1,"It’s all about gender: Hebrew speakers’ judgment of adjective plural agreement",NA,"10.1007/s11525-015-9259-y","","",""
"Morphology","2015",25,3,"Rachel Schiff",2,2,"It’s all about gender: Hebrew speakers’ judgment of adjective plural agreement",NA,"10.1007/s11525-015-9259-y","","",""
"Morphology","2015",25,2,"Thomas Weidhaas",2,1,"Diminutive verbs in German: semantic analysis and theoretical implications",NA,"10.1007/s11525-015-9258-z","","",""
"Morphology","2015",25,2,"Hans-Jörg Schmid",2,2,"Diminutive verbs in German: semantic analysis and theoretical implications",NA,"10.1007/s11525-015-9258-z","","",""
"Morphology","2015",25,2,"Katya Pertsova",1,1,"Interaction of morphological and phonological markedness in Russian genitive plural allomorphy",NA,"10.1007/s11525-015-9256-1","","",""
"Morphology","2015",25,2,"Andrea D. Sims",2,1,"Lexical processing and affix ordering: cross-linguistic predictions",NA,"10.1007/s11525-015-9257-0","","",""
"Morphology","2015",25,2,"Jeff Parker",2,2,"Lexical processing and affix ordering: cross-linguistic predictions",NA,"10.1007/s11525-015-9257-0","","",""
"Morphology","2015",25,1,"Olivier Bonami",1,1,"Periphrasis as collocation",NA,"10.1007/s11525-015-9254-3","","",""
"Morphology","2015",25,1,"Maris Camilleri",1,1,"The functions and the developments of the dual form in Maltese",NA,"10.1007/s11525-015-9255-2","","",""
"Morphology","2014",25,1,"Enrique L. Palancar",1,1,"A mixed system of agreement in the suffix classes of Lealao Chinantec",NA,"10.1007/s11525-014-9252-x","","",""
"Morphology","2014",25,1,"Gero Kunter",1,1,"Kersti Börjars, David Denison and Alan Scott (eds.): Morphosyntactic categories and the expression of possession: John Benjamins Publishing Company, Amsterdam/Philadelphia, 2013, 341 pp., ISBN 9789027255822",NA,"10.1007/s11525-014-9253-9","","",""
"Morphology","2014",25,1,"Nahyun Kwon",2,1,"Phonaesthemes in morphological theory",NA,"10.1007/s11525-014-9250-z","","",""
"Morphology","2014",25,1,"Erich R. Round",2,2,"Phonaesthemes in morphological theory",NA,"10.1007/s11525-014-9250-z","","",""
"Morphology","2014",24,4,"Aurore Koehl",2,1,"Property nouns with -ité and -itude: formal alternation and morphopragmatics or the sad-itude of the Aité N",NA,"10.1007/s11525-014-9247-7","","",""
"Morphology","2014",24,4,"Stéphanie Lignon",2,2,"Property nouns with -ité and -itude: formal alternation and morphopragmatics or the sad-itude of the Aité N",NA,"10.1007/s11525-014-9247-7","","",""
"Morphology","2014",24,4,"Louise Esher",1,1,"Autonomous morphology and extramorphological coherence",NA,"10.1007/s11525-014-9246-8","","",""
"Morphology","2014",24,4,"Clara Cohen",1,1,"Probabilistic reduction and probabilistic enhancement: Contextual and paradigmatic effects on morpheme pronunciation",NA,"10.1007/s11525-014-9243-y","","",""
"Morphology","2014",24,4,"Dany Amiot",5,1,"Introduction: the interface of morphology and phonology",NA,"10.1007/s11525-014-9251-y","","",""
"Morphology","2014",24,4,"Cédric Patin",5,2,"Introduction: the interface of morphology and phonology",NA,"10.1007/s11525-014-9251-y","","",""
"Morphology","2014",24,4,"Natalia Grabar",5,3,"Introduction: the interface of morphology and phonology",NA,"10.1007/s11525-014-9251-y","","",""
"Morphology","2014",24,4,"Fayssal Tayalati",5,4,"Introduction: the interface of morphology and phonology",NA,"10.1007/s11525-014-9251-y","","",""
"Morphology","2014",24,4,"Delphine Tribout",5,5,"Introduction: the interface of morphology and phonology",NA,"10.1007/s11525-014-9251-y","","",""
"Morphology","2014",24,4,"Laurence Labrune",1,1,"Featural linking elements in Basque compounds",NA,"10.1007/s11525-014-9245-9","","",""
"Morphology","2014",24,4,"Jenny Audring",1,1,"Booij, Geert: The Grammar of Words. An Introduction to Linguistic Morphology: Oxford: Oxford University Press, 2012 (353 pp.)",NA,"10.1007/s11525-014-9248-6","","",""
"Morphology","2014",24,4,"Jason A. Shaw",3,1,"Surviving truncation: informativity at the interface of morphology and phonology",NA,"10.1007/s11525-014-9249-5","","",""
"Morphology","2014",24,4,"Chong Han",3,2,"Surviving truncation: informativity at the interface of morphology and phonology",NA,"10.1007/s11525-014-9249-5","","",""
"Morphology","2014",24,4,"Yuan Ma",3,3,"Surviving truncation: informativity at the interface of morphology and phonology",NA,"10.1007/s11525-014-9249-5","","",""
"Morphology","2014",24,3,"Rik van Gijn",2,1,"Word and the Americanist perspective",NA,"10.1007/s11525-014-9242-z","","",""
"Morphology","2014",24,3,"Fernando Zúñiga",2,2,"Word and the Americanist perspective",NA,"10.1007/s11525-014-9242-z","","",""
"Morphology","2014",24,3,"Fernando Zúñiga",1,1,"(Anti-)cliticization in Mapudungun",NA,"10.1007/s11525-014-9244-x","","",""
"Morphology","2014",24,3,"Jimena Terraza",2,1,"Phonological, grammatical, and written words in Wichi",NA,"10.1007/s11525-014-9240-1","","",""
"Morphology","2014",24,3,"Lorena Cayré Baito",2,2,"Phonological, grammatical, and written words in Wichi",NA,"10.1007/s11525-014-9240-1","","",""
"Morphology","2014",24,3,"Donna B. Gerdts",2,1,"Halkomelem clitic types",NA,"10.1007/s11525-014-9241-0","","",""
"Morphology","2014",24,3,"Adam Werle",2,2,"Halkomelem clitic types",NA,"10.1007/s11525-014-9241-0","","",""
"Morphology","2014",24,3,"Rik van Gijn",1,1,"Word accent and mapping rules in Yurakaré",NA,"10.1007/s11525-014-9238-8","","",""
"Morphology","2014",24,3,"Verónica Nercesian",1,1,"Wordhood and the interplay of linguistic levels in synthetic languages. An empirical study on Wichi (Mataguayan, Gran Chaco)",NA,"10.1007/s11525-014-9239-7","","",""
"Morphology","2014",24,2,"Andrew Carstairs-McCarthy",1,1,"Laurie Bauer, Rochelle Lieber and Ingo Plag: “The Oxford reference guide to English morphology”: Oxford: Oxford University Press, 2013, x+691 pp., ISBN: 978-019-957926-6",NA,"10.1007/s11525-014-9237-9","","",""
"Morphology","2014",24,2,"Khalsa Al Aghbari",1,1,"Vb infixed plurals in Jebbāli",NA,"10.1007/s11525-014-9236-x","","",""
"Morphology","2014",24,2,"Natalia Beliaeva",1,1,"Elisa Mattiello: Extra-grammatical morphology in English: abbreviations, blends, reduplicatives and related phenomena (Topics in English linguistics, vol. 82): Berlin/Boston: De Gruyter Mouton, 2013, ix+340 p., ISBN 978-3-11-029386-9, e-ISBN 978-3-11-029539-9",NA,"10.1007/s11525-014-9235-y","","",""
"Morphology","2014",24,2,"Laurie Bauer",1,1,"Grammaticality, acceptability, possible words and large corpora",NA,"10.1007/s11525-014-9234-z","","",""
"Morphology","2014",24,1,"Matthias Gerner",1,1,"Noncompositional scopal morphology in Yi",NA,"10.1007/s11525-014-9231-2","","",""
"Morphology","2014",24,1,"Paul O’Neill",1,1,"The morphome in constructive and abstractive models of morphology",NA,"10.1007/s11525-014-9232-1","","",""
"Morphology","2014",24,1,"Antonio Fábregas",1,1,"Notes on exponents. A review of Jochen Trommer (ed.), The morphology and phonology of exponence: Oxford: Oxford University Press, 2012, 568 pp., ISBN 978-0-19-957373-8",NA,"10.1007/s11525-014-9233-0","","",""
"Morphology","2013",23,4,"Kristian Berg",1,1,"Graphemic alternations in English as a reflex of morphological structure",NA,"10.1007/s11525-013-9229-1","","",""
"Morphology","2013",23,4,"Noam Faust",1,1,"Decomposing the feminine suffixes of Modern Hebrew: a morpho-syntactic analysis",NA,"10.1007/s11525-013-9230-8","","",""
"Morphology","2013",23,3,"Lior Laks",1,1,"Why and how do Hebrew verbs change their form? A morpho-thematic account",NA,"10.1007/s11525-013-9227-3","","",""
"Morphology","2013",23,3,"Damaris Nübling",2,1,"Erratum to: Linking elements in German: Origin, Change, Functionalization",NA,"10.1007/s11525-013-9217-5","","",""
"Morphology","2013",23,3,"Renata Szczepaniak",2,2,"Erratum to: Linking elements in German: Origin, Change, Functionalization",NA,"10.1007/s11525-013-9217-5","","",""
"Morphology","2013",23,3,"Klaus von Heusinger",2,1,"Italian V+N compounds, inflectional features and conceptual structure",NA,"10.1007/s11525-013-9210-z","","",""
"Morphology","2013",23,3,"Christoph Schwarze",2,2,"Italian V+N compounds, inflectional features and conceptual structure",NA,"10.1007/s11525-013-9210-z","","",""
"Morphology","2013",23,2,"Peter Ackema",2,1,"Subset controllers in agreement relations",NA,"10.1007/s11525-013-9218-4","","",""
"Morphology","2013",23,2,"Ad Neeleman",2,2,"Subset controllers in agreement relations",NA,"10.1007/s11525-013-9218-4","","",""
"Morphology","2013",23,2,"J. Trommer",1,1,"Preface",NA,"10.1007/s11525-013-9222-8","","",""
"Morphology","2013",23,2,"Gereon Müller",1,1,"A radically non-morphemic approach to bidirectional syncretism",NA,"10.1007/s11525-013-9224-6","","",""
"Morphology","2013",23,2,"Jesse Saba Kirchner",1,1,"Minimal reduplication and reduplicative exponence",NA,"10.1007/s11525-013-9225-5","","",""
"Morphology","2013",23,2,"Jochen Trommer",1,1,"Paradigmatic generalization of morphemes",NA,"10.1007/s11525-013-9226-4","","",""
"Morphology","2013",23,2,"Bernd Wiese",1,1,"On Latin nominal inflection: the form-function relationship",NA,"10.1007/s11525-013-9223-7","","",""
"Morphology","2013",23,2,"Stefan Keine",1,1,"Syntagmatic constraints on insertion",NA,"10.1007/s11525-013-9221-9","","",""
"Morphology","2013",23,2,"Gabriela Caballero",2,1,"Word construction: tracing an optimal path through the lexicon",NA,"10.1007/s11525-013-9220-x","","",""
"Morphology","2013",23,2,"Sharon Inkelas",2,2,"Word construction: tracing an optimal path through the lexicon",NA,"10.1007/s11525-013-9220-x","","",""
"Morphology","2013",23,2,"Matthew Wolf",1,1,"Candidate chains, unfaithful spell-out, and outwards-looking phonologically-conditioned allomorphy",NA,"10.1007/s11525-013-9219-3","","",""
"Morphology","2013",23,1,"Vincent Renner",1,1,"English cum, a borrowed coordinator turned complex-compound marker",NA,"10.1007/s11525-013-9214-8","","",""
"Morphology","2013",23,1,"Damaris Nübling",2,1,"Linking elements in German Origin, Change, Functionalization",NA,"10.1007/s11525-013-9213-9","","",""
"Morphology","2013",23,1,"Renata Szczepaniak",2,2,"Linking elements in German Origin, Change, Functionalization",NA,"10.1007/s11525-013-9213-9","","",""
"Morphology","2013",23,1,"Sebastian Kürschner",2,1,"Linking elements—origin, change, and functionalization",NA,"10.1007/s11525-013-9215-7","","",""
"Morphology","2013",23,1,"Renata Szczepaniak",2,2,"Linking elements—origin, change, and functionalization",NA,"10.1007/s11525-013-9215-7","","",""
"Morphology","2013",23,1,"Barbara Schlücker",1,1,"Joseph Salmons: A History of German. What the past reveals about today’s language: Oxford: Oxford University Press, 2012. xv + 396pp. ISBN 978-0-19-969793-9 (hardback), ISBN 978-0-19-969794-6 (paperback)",NA,"10.1007/s11525-013-9216-6","","",""
"Morphology","2013",23,1,"Arina Banga",4,1,"Preference for linking element -en- in Dutch noun-noun compounds: native speakers and second language learners of Dutch",NA,"10.1007/s11525-013-9211-y","","",""
"Morphology","2013",23,1,"Esther Hanssen",4,2,"Preference for linking element -en- in Dutch noun-noun compounds: native speakers and second language learners of Dutch",NA,"10.1007/s11525-013-9211-y","","",""
"Morphology","2013",23,1,"Anneke Neijt",4,3,"Preference for linking element -en- in Dutch noun-noun compounds: native speakers and second language learners of Dutch",NA,"10.1007/s11525-013-9211-y","","",""
"Morphology","2013",23,1,"Robert Schreuder",4,4,"Preference for linking element -en- in Dutch noun-noun compounds: native speakers and second language learners of Dutch",NA,"10.1007/s11525-013-9211-y","","",""
"Morphology","2013",23,1,"Esther Hanssen",4,1,"Semantic and prosodic effects of Dutch linking elements",NA,"10.1007/s11525-013-9212-x","","",""
"Morphology","2013",23,1,"Arina Banga",4,2,"Semantic and prosodic effects of Dutch linking elements",NA,"10.1007/s11525-013-9212-x","","",""
"Morphology","2013",23,1,"Robert Schreuder",4,3,"Semantic and prosodic effects of Dutch linking elements",NA,"10.1007/s11525-013-9212-x","","",""
"Morphology","2013",23,1,"Anneke Neijt",4,4,"Semantic and prosodic effects of Dutch linking elements",NA,"10.1007/s11525-013-9212-x","","",""
"Morphology","2012",22,3,"Geert Booij",1,1,"Construction Morphology, a brief introduction",NA,"10.1007/s11525-012-9209-x","","",""
"Morphology","2012",22,4,"Itsik Pariente",1,1,"Grammatical paradigm uniformity",NA,"10.1007/s11525-012-9207-z","","",""
"Morphology","2012",22,4,"Bernd Heine",1,1,"Andrew Carstairs-McCarthy: The evolution of morphology (Studies in the evolution of language, vol. 14): Oxford: Oxford University Press, 2010, xii+253 p., ISBN 798 019 929978-2 (Hbk.), ISBN 798 0 19 920268-3 (Pbk.)",NA,"10.1007/s11525-012-9208-y","","",""
"Morphology","2012",22,3,"Anna Pompei",2,1,"Complex -éō verbs in Ancient Greek. A case study at the interface between derivation and compounding",NA,"10.1007/s11525-012-9204-2","","",""
"Morphology","2012",22,3,"Nicola Grandi",2,2,"Complex -éō verbs in Ancient Greek. A case study at the interface between derivation and compounding",NA,"10.1007/s11525-012-9204-2","","",""
"Morphology","2012",22,4,"Angeliki Efthymiou",3,1,"Productivity of verb-forming suffixes in Modern Greek: a corpus-based study",NA,"10.1007/s11525-012-9202-4","","",""
"Morphology","2012",22,4,"Georgia Fragaki",3,2,"Productivity of verb-forming suffixes in Modern Greek: a corpus-based study",NA,"10.1007/s11525-012-9202-4","","",""
"Morphology","2012",22,4,"Angelos Markos",3,3,"Productivity of verb-forming suffixes in Modern Greek: a corpus-based study",NA,"10.1007/s11525-012-9202-4","","",""
"Morphology","2012",22,4,"Noam Faust",1,1,"Non-concatenative realization in the verbal inflection of Modern Hebrew",NA,"10.1007/s11525-012-9206-0","","",""
"Morphology","2012",22,4,"Mary Lou Vercellotti",2,1,"A classification of compounds in American Sign Language: an evaluation of the Bisetto and Scalise framework",NA,"10.1007/s11525-012-9205-1","","",""
"Morphology","2012",22,4,"David R. Mortensen",2,2,"A classification of compounds in American Sign Language: an evaluation of the Bisetto and Scalise framework",NA,"10.1007/s11525-012-9205-1","","",""
"Morphology","2012",22,2,"John J. McCarthy",3,1,"Reduplication in Harmonic Serialism",NA,"10.1007/s11525-012-9203-3","","",""
"Morphology","2012",22,2,"Wendell Kimper",3,2,"Reduplication in Harmonic Serialism",NA,"10.1007/s11525-012-9203-3","","",""
"Morphology","2012",22,2,"Kevin Mullin",3,3,"Reduplication in Harmonic Serialism",NA,"10.1007/s11525-012-9203-3","","",""
"Morphology","2012",22,2,"Jeff Good",1,1,"How to become a “Kwa” noun",NA,"10.1007/s11525-011-9197-2","","",""
"Morphology","2012",22,2,"Dunstan Brown",5,1,"Defining ‘periphrasis’: key notions",NA,"10.1007/s11525-012-9201-5","","",""
"Morphology","2012",22,2,"Marina Chumakina",5,2,"Defining ‘periphrasis’: key notions",NA,"10.1007/s11525-012-9201-5","","",""
"Morphology","2012",22,2,"Greville Corbett",5,3,"Defining ‘periphrasis’: key notions",NA,"10.1007/s11525-012-9201-5","","",""
"Morphology","2012",22,2,"Gergana Popova",5,4,"Defining ‘periphrasis’: key notions",NA,"10.1007/s11525-012-9201-5","","",""
"Morphology","2012",22,2,"Andrew Spencer",5,5,"Defining ‘periphrasis’: key notions",NA,"10.1007/s11525-012-9201-5","","",""
"Morphology","2012",22,1,"Katherine Demuth",2,1,"The acquisition of Sesotho nominal agreement",NA,"10.1007/s11525-011-9192-7","","",""
"Morphology","2012",22,1,"Sara Weschler",2,2,"The acquisition of Sesotho nominal agreement",NA,"10.1007/s11525-011-9192-7","","",""
"Morphology","2012",22,1,"Eve V. Clark",2,1,"Constructing verb paradigms in French: adult construals and emerging grammatical contrasts",NA,"10.1007/s11525-011-9193-6","","",""
"Morphology","2012",22,1,"Marie-Catherine de Marneffe",2,2,"Constructing verb paradigms in French: adult construals and emerging grammatical contrasts",NA,"10.1007/s11525-011-9193-6","","",""
"Morphology","2012",22,1,"Katharina Korecky-Kröll",7,1,"Helping a crocodile to learn German plurals: children’s online judgment of actual, potential and illegal plural forms",NA,"10.1007/s11525-011-9191-8","","",""
"Morphology","2012",22,1,"Gary Libben",7,2,"Helping a crocodile to learn German plurals: children’s online judgment of actual, potential and illegal plural forms",NA,"10.1007/s11525-011-9191-8","","",""
"Morphology","2012",22,1,"Nicole Stempfer",7,3,"Helping a crocodile to learn German plurals: children’s online judgment of actual, potential and illegal plural forms",NA,"10.1007/s11525-011-9191-8","","",""
"Morphology","2012",22,1,"Julia Wiesinger",7,4,"Helping a crocodile to learn German plurals: children’s online judgment of actual, potential and illegal plural forms",NA,"10.1007/s11525-011-9191-8","","",""
"Morphology","2012",22,1,"Eva Reinisch",7,5,"Helping a crocodile to learn German plurals: children’s online judgment of actual, potential and illegal plural forms",NA,"10.1007/s11525-011-9191-8","","",""
"Morphology","2012",22,1,"Johannes Bertl",7,6,"Helping a crocodile to learn German plurals: children’s online judgment of actual, potential and illegal plural forms",NA,"10.1007/s11525-011-9191-8","","",""
"Morphology","2012",22,1,"Wolfgang U. Dressler",7,7,"Helping a crocodile to learn German plurals: children’s online judgment of actual, potential and illegal plural forms",NA,"10.1007/s11525-011-9191-8","","",""
"Morphology","2012",22,1,"Grzegorz Krajewski",3,1,"Productivity of a Polish child’s inflectional noun morphology: a naturalistic study",NA,"10.1007/s11525-011-9199-0","","",""
"Morphology","2012",22,1,"Elena V. M. Lieven",3,2,"Productivity of a Polish child’s inflectional noun morphology: a naturalistic study",NA,"10.1007/s11525-011-9199-0","","",""
"Morphology","2012",22,1,"Anna L. Theakston",3,3,"Productivity of a Polish child’s inflectional noun morphology: a naturalistic study",NA,"10.1007/s11525-011-9199-0","","",""
"Morphology","2012",22,3,"Francesca Masini",2,1,"Phrasal lexemes and shortening strategies in Russian: the case for constructions",NA,"10.1007/s11525-011-9200-y","","",""
"Morphology","2012",22,3,"Valentina Benigni",2,2,"Phrasal lexemes and shortening strategies in Russian: the case for constructions",NA,"10.1007/s11525-011-9200-y","","",""
"Morphology","2012",22,3,"Dany Amiot",2,1,"A constructional account of French -clé ‘key’ and Dutch sleutel- ‘key’ as in mot-clé / sleutelwoord ‘key word’",NA,"10.1007/s11525-011-9196-3","","",""
"Morphology","2012",22,3,"Kristel Van Goethem",2,2,"A constructional account of French -clé ‘key’ and Dutch sleutel- ‘key’ as in mot-clé / sleutelwoord ‘key word’",NA,"10.1007/s11525-011-9196-3","","",""
"Morphology","2012",22,1,"Wolfgang U. Dressler",1,1,"On the acquisition of inflectional morphology: introduction",NA,"10.1007/s11525-011-9198-1","","",""
"Morphology","2012",22,1,"Chloë R. Marshall",2,1,"Irregular past tense forms in English: how data from children with specific language impairment contribute to models of morphology",NA,"10.1007/s11525-011-9195-4","","",""
"Morphology","2012",22,1,"Heather K. J. van der Lely",2,2,"Irregular past tense forms in English: how data from children with specific language impairment contribute to models of morphology",NA,"10.1007/s11525-011-9195-4","","",""
"Morphology","2012",22,1,"Stavroula Stavrakaki",3,1,"The perfective past tense in Greek children with specific language impairment",NA,"10.1007/s11525-011-9194-5","","",""
"Morphology","2012",22,1,"Konstantinos Koutsandreas",3,2,"The perfective past tense in Greek children with specific language impairment",NA,"10.1007/s11525-011-9194-5","","",""
"Morphology","2012",22,1,"Harald Clahsen",3,3,"The perfective past tense in Greek children with specific language impairment",NA,"10.1007/s11525-011-9194-5","","",""
"Morphology","2011",22,3,"Giorgio Francesco Arcodia",1,1,"Constructions and headedness in derivation and compounding",NA,"10.1007/s11525-011-9189-2","","",""
"Morphology","2011",22,2,"Andrea D. Sims",1,1,"Matthew Baerman, Greville G. Corbett and Dunstan Brown (eds): Defective paradigms: missing forms and what they tell us [= Proceedings of the British Academy 163]: The British Academy, London, 216 pp, ISBN 9780197264607",NA,"10.1007/s11525-011-9190-9","","",""
"Morphology","2011",22,2,"Frans Plank",1,1,"Why *-ling-in? The pertinacity of a wrong gender",NA,"10.1007/s11525-011-9188-3","","",""
"Morphology","2011",21,NA,"Cathryn Donohue",2,1,"Morphological case",NA,"10.1007/s11525-011-9187-4","","",""
"Morphology","2011",21,NA,"Jóhanna Barðdal",2,2,"Morphological case",NA,"10.1007/s11525-011-9187-4","","",""
"Morphology","2010",21,NA,"Klaus von Heusinger",2,1,"Affectedness and Differential Object Marking in Spanish",NA,"10.1007/s11525-010-9177-y","","",""
"Morphology","2010",21,NA,"Georg A. Kaiser",2,2,"Affectedness and Differential Object Marking in Spanish",NA,"10.1007/s11525-010-9177-y","","",""
"Morphology","2010",21,NA,"Jóhanna Barðdal",1,1,"Lexical vs. structural case: a false dichotomy",NA,"10.1007/s11525-010-9174-1","","",""
"Morphology","2010",20,2,"Natalia Korotkova",2,1,"Deriving affix ordering in polysynthesis: evidence from Adyghe",NA,"10.1007/s11525-010-9185-y","","",""
"Morphology","2010",20,2,"Yury Lander",2,2,"Deriving affix ordering in polysynthesis: evidence from Adyghe",NA,"10.1007/s11525-010-9185-y","","",""
"Morphology","2010",20,2,"Roksolana Mykhaylyk",1,1,"Diachronic universals and morpheme order in the Ukrainian synthetic imperfective future",NA,"10.1007/s11525-010-9182-1","","",""
"Morphology","2010",20,2,"Rachel Nordlinger",1,1,"Verbal morphology in Murrinh-Patha: evidence for templates",NA,"10.1007/s11525-010-9184-z","","",""
"Morphology","2010",20,2,"Mark Aronoff",2,1,"A Realization Optimality-Theoretic approach to affix order",NA,"10.1007/s11525-010-9181-2","","",""
"Morphology","2010",20,2,"Zheng Xu",2,2,"A Realization Optimality-Theoretic approach to affix order",NA,"10.1007/s11525-010-9181-2","","",""
"Morphology","2010",20,2,"Dimitra Melissaropoulou",2,1,"Greek derivational structures: restrictions and constraints",NA,"10.1007/s11525-010-9183-0","","",""
"Morphology","2010",20,2,"Angela Ralli",2,2,"Greek derivational structures: restrictions and constraints",NA,"10.1007/s11525-010-9183-0","","",""
"Morphology","2010",21,2,"Orin Percus",1,1,"Gender features and interpretation: a case study",NA,"10.1007/s11525-010-9157-2","","",""
"Morphology","2010",21,NA,"Miriam Butt",2,1,"The redevelopment of Indo-Aryan case systems from a lexical semantic perspective",NA,"10.1007/s11525-010-9175-0","","",""
"Morphology","2010",21,NA,"Tafseer Ahmed",2,2,"The redevelopment of Indo-Aryan case systems from a lexical semantic perspective",NA,"10.1007/s11525-010-9175-0","","",""
"Morphology","2010",21,1,"Giorgio Francesco Arcodia",1,1,"A Construction Morphology account of derivation in Mandarin Chinese",NA,"10.1007/s11525-010-9173-2","","",""
"Morphology","2010",21,NA,"Mark Donohue",1,1,"Case and configurationality: scrambling or mapping?",NA,"10.1007/s11525-010-9180-3","","",""
"Morphology","2010",21,2,"Andrea Calabrese",1,1,"Investigations on markedness, syncretism and zero exponence in morphology",NA,"10.1007/s11525-010-9169-y","","",""
"Morphology","2010",21,NA,"Alexander Krasovitsky",4,1,"Changing semantic factors in case selection: Russian evidence from the last two centuries",NA,"10.1007/s11525-010-9178-x","","",""
"Morphology","2010",21,NA,"Matthew Baerman",4,2,"Changing semantic factors in case selection: Russian evidence from the last two centuries",NA,"10.1007/s11525-010-9178-x","","",""
"Morphology","2010",21,NA,"Dunstan Brown",4,3,"Changing semantic factors in case selection: Russian evidence from the last two centuries",NA,"10.1007/s11525-010-9178-x","","",""
"Morphology","2010",21,NA,"Greville G. Corbett",4,4,"Changing semantic factors in case selection: Russian evidence from the last two centuries",NA,"10.1007/s11525-010-9178-x","","",""
"Morphology","2010",20,2,"Mark Aronoff",2,1,"Introduction: Theory, description, and analysis in affix order",NA,"10.1007/s11525-010-9186-x","","",""
"Morphology","2010",20,2,"Stela Manova",2,2,"Introduction: Theory, description, and analysis in affix order",NA,"10.1007/s11525-010-9186-x","","",""
"Morphology","2010",21,2,"Alan Bale",3,1,"On the relationship between morphological and semantic markedness: The case of plural morphology",NA,"10.1007/s11525-010-9158-1","","",""
"Morphology","2010",21,2,"Michaël Gagnon",3,2,"On the relationship between morphological and semantic markedness: The case of plural morphology",NA,"10.1007/s11525-010-9158-1","","",""
"Morphology","2010",21,2,"Hrayr Khanjian",3,3,"On the relationship between morphological and semantic markedness: The case of plural morphology",NA,"10.1007/s11525-010-9158-1","","",""
"Morphology","2010",21,2,"Suzanne Aalberse",2,1,"Person and number syncretisms in Dutch",NA,"10.1007/s11525-010-9164-3","","",""
"Morphology","2010",21,2,"Jan Don",2,2,"Person and number syncretisms in Dutch",NA,"10.1007/s11525-010-9164-3","","",""
"Morphology","2010",21,NA,"Cathryn Donohue",1,1,"Towards an understanding of dative objects in Basque: a logistic regression analysis",NA,"10.1007/s11525-010-9179-9","","",""
"Morphology","2010",21,2,"Louisa Sadler",1,1,"Indeterminacy, complex features and underspecification",NA,"10.1007/s11525-010-9166-1","","",""
"Morphology","2010",21,2,"Andrew Nevins",2,1,"Markedness and morphotactics in Kadiwéu [+participant] agreement",NA,"10.1007/s11525-010-9165-2","","",""
"Morphology","2010",21,2,"Filomena Sandalo",2,2,"Markedness and morphotactics in Kadiwéu [+participant] agreement",NA,"10.1007/s11525-010-9165-2","","",""
"Morphology","2010",21,NA,"Scott Grimm",1,1,"Semantics of case",NA,"10.1007/s11525-010-9176-z","","",""
"Morphology","2010",21,2,"Michael Cysouw",1,1,"The expression of person and number: a typologist’s perspective",NA,"10.1007/s11525-010-9170-5","","",""
"Morphology","2010",21,2,"Greville G. Corbett",1,1,"The penumbra of morphosyntactic feature systems",NA,"10.1007/s11525-010-9171-4","","",""
"Morphology","2010",21,2,"Daniel Harbour",1,1,"Descriptive and explanatory markedness",NA,"10.1007/s11525-010-9167-0","","",""
"Morphology","2010",21,1,"Willem Visser",1,1,"Historical gender change in West Frisian",NA,"10.1007/s11525-010-9162-5","","",""
"Morphology","2010",21,1,"Felicity Meakins",1,1,"Borrowing contextual inflection: evidence from northern Australia",NA,"10.1007/s11525-010-9163-4","","",""
"Morphology","2010",21,2,"Stephen Wechsler",2,1,"Polite plurals and adjective agreement",NA,"10.1007/s11525-010-9168-z","","",""
"Morphology","2010",21,2,"Hyun-Jong Hahm",2,2,"Polite plurals and adjective agreement",NA,"10.1007/s11525-010-9168-z","","",""
"Morphology","2010",21,2,"Jonathan David Bobaljik",3,1,"Preface: on the morphosemantics of agreement features",NA,"10.1007/s11525-010-9155-4","","",""
"Morphology","2010",21,2,"Andrew Nevins",3,2,"Preface: on the morphosemantics of agreement features",NA,"10.1007/s11525-010-9155-4","","",""
"Morphology","2010",21,2,"Uli Sauerland",3,3,"Preface: on the morphosemantics of agreement features",NA,"10.1007/s11525-010-9155-4","","",""
"Morphology","2010",21,1,"Jason D. Haugen",2,1,"Base-dependence in reduplication",NA,"10.1007/s11525-010-9154-5","","",""
"Morphology","2010",21,1,"Cathy Hicks Kennard",2,2,"Base-dependence in reduplication",NA,"10.1007/s11525-010-9154-5","","",""
"Morphology","2010",21,2,"Jonathan David Bobaljik",2,1,"Gender markedness: the anatomy of a counter-example",NA,"10.1007/s11525-010-9156-3","","",""
"Morphology","2010",21,2,"Cynthia Levart Zocca",2,2,"Gender markedness: the anatomy of a counter-example",NA,"10.1007/s11525-010-9156-3","","",""
"Morphology","2010",20,1,"Stela Manova",2,1,"Modeling affix order",NA,"10.1007/s11525-010-9153-6","","",""
"Morphology","2010",20,1,"Mark Aronoff",2,2,"Modeling affix order",NA,"10.1007/s11525-010-9153-6","","",""
"Morphology","2010",20,1,"Stela Manova",1,1,"Suffix combinations in Bulgarian: parsability and hierarchy-based ordering",NA,"10.1007/s11525-010-9148-3","","",""
"Morphology","2010",20,1,"Gabriela Caballero",1,1,"Scope, phonology and morphology in an agglutinating language: Choguita Rarámuri (Tarahumara) variable suffix ordering",NA,"10.1007/s11525-010-9147-4","","",""
"Morphology","2010",20,1,"Yuni Kim",1,1,"Phonological and morphological conditions on affix order in Huave",NA,"10.1007/s11525-010-9149-2","","",""
"Morphology","2010",20,1,"Heiko Narrog",1,1,"The order of meaningful elements in the Japanese verbal complex",NA,"10.1007/s11525-010-9150-9","","",""
"Morphology","2010",20,1,"Linda Zirkel",1,1,"Prefix combinations in English: structural and processing factors",NA,"10.1007/s11525-010-9151-8","","",""
"Morphology","2010",20,1,"John Löwenadler",1,1,"Restrictions on productivity: defectiveness in Swedish adjective paradigms",NA,"10.1007/s11525-009-9145-6","","",""
"Morphology","2009",20,1,"Jennifer Austin",1,1,"Rich inflection and the production of finite verbs in child language",NA,"10.1007/s11525-009-9144-7","","",""
"Morphology","2009",19,2,"Sabrina Bendjaballah",2,1,"Ancient Egyptian verbal reduplication: typology, diachrony, and the morphology–syntax interface",NA,"10.1007/s11525-009-9138-5","","",""
"Morphology","2009",19,2,"Chris H. Reintges",2,2,"Ancient Egyptian verbal reduplication: typology, diachrony, and the morphology–syntax interface",NA,"10.1007/s11525-009-9138-5","","",""
"Morphology","2009",19,2,"Bernhard Hurch",2,1,"Introduction: Diachrony and productivity of reduplication",NA,"10.1007/s11525-009-9136-7","","",""
"Morphology","2009",19,2,"Veronika Mattes",2,2,"Introduction: Diachrony and productivity of reduplication",NA,"10.1007/s11525-009-9136-7","","",""
"Morphology","2009",19,2,"Hein van der Voort",1,1,"Reduplication and repetition of person markers in Guaporé isolates",NA,"10.1007/s11525-009-9143-8","","",""
"Morphology","2009",19,2,"Lawrence A. Reid",1,1,"On the diachronic development of C1V1- reduplication in some Austronesian languages",NA,"10.1007/s11525-009-9142-9","","",""
"Morphology","2009",19,2,"Henning Andersen",1,1,"Reduplication in Slavic and Baltic: loss and renewal",NA,"10.1007/s11525-009-9137-6","","",""
"Morphology","2009",19,2,"Larry M. Hyman",1,1,"The natural history of verb-stem reduplication in Bantu",NA,"10.1007/s11525-009-9140-y","","",""
"Morphology","2009",19,2,"Nicholas Evans",1,1,"Doubled up all over again: borrowing, sound change and reduplication in Iwaidja",NA,"10.1007/s11525-009-9139-4","","",""
"Morphology","2009",19,2,"John Peterson",2,1,"Reduplication in Kharia: the masdar as a phonologically motivated category",NA,"10.1007/s11525-009-9141-x","","",""
"Morphology","2009",19,2,"Utz Maas",2,2,"Reduplication in Kharia: the masdar as a phonologically motivated category",NA,"10.1007/s11525-009-9141-x","","",""
"Morphology","2009",20,1,"Claire Meul",1,1,"The intra-paradigmatic distribution of the infix -I/ESC- from Latin to Modern Romance: morphomic patterning and beyond",NA,"10.1007/s11525-009-9135-8","","",""
"Morphology","2009",19,1,"Martin Maiden",1,1,"Where does heteroclisis come from? Evidence from Romanian dialects",NA,"10.1007/s11525-009-9130-0","","",""
"Morphology","2009",19,1,"Suzanne Aalberse",2,1,"Syncretism in Dutch dialects",NA,"10.1007/s11525-009-9132-y","","",""
"Morphology","2009",19,1,"Jan Don",2,2,"Syncretism in Dutch dialects",NA,"10.1007/s11525-009-9132-y","","",""
"Morphology","2009",19,1,"Angela Ralli",1,1,"Morphology meets dialectology: insights from Modern Greek dialects",NA,"10.1007/s11525-009-9134-9","","",""
"Morphology","2009",19,1,"Brian D. Joseph",1,1,"Greek dialectal evidence for the role of the paradigm in inflectional change",NA,"10.1007/s11525-009-9129-6","","",""
"Morphology","2009",19,1,"Geert Booij",3,1,"Preface",NA,"10.1007/s11525-009-9131-z","","",""
"Morphology","2009",19,1,"Angela Ralli",3,2,"Preface",NA,"10.1007/s11525-009-9131-z","","",""
"Morphology","2009",19,1,"Sergio Scalise",3,3,"Preface",NA,"10.1007/s11525-009-9131-z","","",""
"Morphology","2009",19,1,"Claudio Iacobini",1,1,"The role of dialects in the emergence of Italian phrasal verbs",NA,"10.1007/s11525-009-9133-x","","",""
"Morphology","2009",NA,NA,"Frank Brisard",3,1,"Clausal order and the acquisition of Dutch deverbal compounds",NA,"10.1007/s11525-009-9128-7","","",""
"Morphology","2009",NA,NA,"Eva Laarman",3,2,"Clausal order and the acquisition of Dutch deverbal compounds",NA,"10.1007/s11525-009-9128-7","","",""
"Morphology","2009",NA,NA,"Elena Nicoladis",3,3,"Clausal order and the acquisition of Dutch deverbal compounds",NA,"10.1007/s11525-009-9128-7","","",""
"Morphology","2008",18,2,"Jenny Audring",1,1,"Gender assignment and gender agreement: Evidence from pronominal gender languages",NA,"10.1007/s11525-009-9124-y","","",""
"Morphology","2008",18,2,"Frank Brisard",3,1,"Clausal order and the acquisition of Dutch deverbal compounds",NA,"10.1007/s11525-009-9127-8","","",""
"Morphology","2008",18,2,"Eva Laarman",3,2,"Clausal order and the acquisition of Dutch deverbal compounds",NA,"10.1007/s11525-009-9127-8","","",""
"Morphology","2008",18,2,"Elena Nicoladis",3,3,"Clausal order and the acquisition of Dutch deverbal compounds",NA,"10.1007/s11525-009-9127-8","","",""
"Morphology","2008",18,2,"Franck Floricic",1,1,"The Italian verb–noun anthroponymic compounds at the Syntax / morphology interface",NA,"10.1007/s11525-009-9126-9","","",""
"Morphology","2008",18,2,"Livio Gaeta",1,1,"Constituent order in compounds and syntax: typology and diachrony",NA,"10.1007/s11525-009-9125-x","","",""
"Morphology","2008",18,1,"Daniel Harbour",1,1,"On homophony and methodology in morphology",NA,"10.1007/s11525-009-9123-z","","",""
"Morphology","2008",18,1,"Damaris Nübling",2,1,"On the way from morphology to phonology: German linking elements and the role of the phonological word",NA,"10.1007/s11525-008-9120-7","","",""
"Morphology","2008",18,1,"Renata Szczepaniak",2,2,"On the way from morphology to phonology: German linking elements and the role of the phonological word",NA,"10.1007/s11525-008-9120-7","","",""
"Morphology","2008",18,1,"Kristel Van Goethem",1,1,"Oud-leerling versus ancien élève: A Comparative Study of Adjectives Grammaticalizing into Prefixes in Dutch and French",NA,"10.1007/s11525-008-9121-6","","",""
"Morphology","2008",18,1,"Laurie Bauer",1,1,"Exocentric compounds",NA,"10.1007/s11525-008-9122-5","","",""
"Morphology","2007",17,2,"Antonella Ceccagno",2,1,"Compound headedness in Chinese: an analysis of neologisms",NA,"10.1007/s11525-008-9119-0","","",""
"Morphology","2007",17,2,"Bianca Basciano",2,2,"Compound headedness in Chinese: an analysis of neologisms",NA,"10.1007/s11525-008-9119-0","","",""
"Morphology","2007",17,2,"Livio Gaeta",1,1,"On the double nature of productivity in inflectional morphology",NA,"10.1007/s11525-007-9117-7","","",""
"Morphology","2007",17,2,"Jörg Meibauer",1,1,"How marginal are phrasal compounds? Generalized insertion, expressivity, and I/Q-interaction",NA,"10.1007/s11525-008-9118-1","","",""
"Morphology","2007",17,1,"Raphael Finkel",2,1,"Principal parts and morphological typology",NA,"10.1007/s11525-007-9115-9","","",""
"Morphology","2007",17,1,"Gregory Stump",2,2,"Principal parts and morphological typology",NA,"10.1007/s11525-007-9115-9","","",""
"Morphology","2007",17,1,"Gereon Müller",1,1,"Notes on paradigm economy",NA,"10.1007/s11525-007-9114-x","","",""
"Morphology","2007",17,1,"Elma Blom",3,1,"Effects of age on the acquisition of agreement inflection",NA,"10.1007/s11525-007-9116-8","","",""
"Morphology","2007",17,1,"Daniela Polišenská",3,2,"Effects of age on the acquisition of agreement inflection",NA,"10.1007/s11525-007-9116-8","","",""
"Morphology","2007",17,1,"Fred Weerman",3,3,"Effects of age on the acquisition of agreement inflection",NA,"10.1007/s11525-007-9116-8","","",""
"Morphology","2007",17,1,"T. A. Hall",2,1,"Inflectional paradigms have a base: evidence from s-Dissimilation in Southern German dialects",NA,"10.1007/s11525-007-9112-z","","",""
"Morphology","2007",17,1,"John H. G. Scott",2,2,"Inflectional paradigms have a base: evidence from s-Dissimilation in Southern German dialects",NA,"10.1007/s11525-007-9112-z","","",""
"Morphology","2007",17,1,"Suzanne Pauline Aalberse",1,1,"The typology of syncretisms and the status of feature structure. Verbal paradigms across 355 Dutch dialects",NA,"10.1007/s11525-007-9111-0","","",""
"Morphology","2007",17,1,"Robert Mailhammer",1,1,"Islands of resilience: the history of the German strong verbs from a systemic point of view",NA,"10.1007/s11525-007-9113-y","","",""
"Morphology","2007",16,2,"Elma Blom",3,1,"Effects of age on the acquisition of agreement inflection",NA,"10.1007/s11525-007-9110-1","","",""
"Morphology","2007",16,2,"Daniela Polisšenská",3,2,"Effects of age on the acquisition of agreement inflection",NA,"10.1007/s11525-007-9110-1","","",""
"Morphology","2007",16,2,"Fred Weerman",3,3,"Effects of age on the acquisition of agreement inflection",NA,"10.1007/s11525-007-9110-1","","",""
"Morphology","2007",16,2,"Hans Bennis",2,1,"Variation in verbal inflection in Dutch dialects",NA,"10.1007/s11525-007-9109-7","","",""
"Morphology","2007",16,2,"Alies MacLean",2,2,"Variation in verbal inflection in Dutch dialects",NA,"10.1007/s11525-007-9109-7","","",""
"Morphology","2007",16,2,"Alice C. Harris",1,1,"In other words: external modifiers in Georgian",NA,"10.1007/s11525-007-9107-9","","",""
"Morphology","2007",16,2,"Gabriela Caballero",1,1,"“Templatic backcopying” in Guarijio abbreviated reduplication",NA,"10.1007/s11525-007-9108-8","","",""
"Morphology","2007",16,2,"Rochelle Lieber",1,1,"The category of roots and the roots of categories: what we learn from selection in derivation",NA,"10.1007/s11525-006-9106-2","","",""
"Morphology","2007",16,2,"Greville G. Corbett",2,1,"Prolegomena to a typology of morphological features",NA,"10.1007/s11525-006-9105-3","","",""
"Morphology","2007",16,2,"Matthew Baerman",2,2,"Prolegomena to a typology of morphological features",NA,"10.1007/s11525-006-9105-3","","",""
"Morphology","2007",16,2,"Claudio Iacobini",2,1,"The emergence of verb-particle constructions in Italian: locative and actional meanings",NA,"10.1007/s11525-006-9101-7","","",""
"Morphology","2007",16,2,"Francesca Masini",2,2,"The emergence of verb-particle constructions in Italian: locative and actional meanings",NA,"10.1007/s11525-006-9101-7","","",""
"Morphology","2006",16,2,"Hans Olav Enger",1,1,"W. U. Dressler, D. Kastovsky, O. E. Pfeiffer & F. Rainer 2005 (eds): Morphology and its demarcations: selected papers from the 11th morphology meeting, Vienna, February 2004 (current issues in linguistic theory 264): John Benjamins, Amsterdam/Philadelphia",NA,"10.1007/s11525-006-9000-y","","",""
"Morphology","2006",16,2,"Michiel de Vaan",1,1,"D. Gary Miller, Latin Suffixal Derivatives in English and their Indo-European Ancestry. xxxvi + 386 pp. Oxford University Press, 2006, Hard cover £ 35.00, ISBN 0-19-928505-5",NA,"10.1007/s11525-006-9104-4","","",""
"Morphology","2006",16,2,"Janet C. E. Watson",1,1,"Arabic morphology: diminutive verbs and diminutive nouns in San’ani Arabic",NA,"10.1007/s11525-006-9103-5","","",""
"Morphology","2006",16,1,"Alain Kihm",1,1,"Nonsegmental Concatenation: A Study of Classical Arabic Broken Plurals and Verbal Nouns",NA,"10.1007/s11525-006-0004-4","","",""
"Morphology","2006",16,1,"Jean-François Prunet",1,1,"External Evidence and the Semitic Root",NA,"10.1007/s11525-006-0003-5","","",""
"Morphology","2006",16,1,"Adam Ussishkin",1,1,"Affix-favored Contrast Inequity and Psycholinguistic Grounding for Non-concatenative Morphology",NA,"10.1007/s11525-006-0005-3","","",""
"Morphology","2006",16,1,"Adam Ussishkin",1,1,"Semitic Morphology: Root-based or Word-based?",NA,"10.1007/s11525-006-0002-6","","",""
"Morphology","2006",16,1,"Heike Baeskow",1,1,"A Revival of Romance Roots",NA,"10.1007/s11525-006-0001-7","","",""
"Morphology","2006",16,1,"Geert Booij",3,1,"Editorial introduction",NA,"10.1007/s11525-006-9001-x","","",""
"Morphology","2006",16,1,"Jaap van Harle",3,2,"Editorial introduction",NA,"10.1007/s11525-006-9001-x","","",""
"Morphology","2006",16,1,"Ingo Plag",3,3,"Editorial introduction",NA,"10.1007/s11525-006-9001-x","","",""
"Morphology","2006",16,1,"Franz Rainer",1,1,"Booij and Geert, The Grammar of Words. An Introduction to Linguistic Morphology. Oxford: Oxford University Press 2005 (308 pp.)",NA,"10.1007/s11525-006-0008-0","","",""
"Morphology","2006",16,1,"Jan Don",1,1,"Review of Bauer, Laurie and Salvador Valera (eds.) (2005) Approaches to Conversion/Zero-derivation, Waxmann: Münster. (175 pp with author index and subject index)",NA,"10.1007/s11525-006-0007-1","","",""
"Morphology","2006",16,1,"Dorit Ravid",1,1,"Word-level Morphology: A Psycholinguistic Perspective on Linear Formation in Hebrew Nominals",NA,"10.1007/s11525-006-0006-2","","",""
