journal name,year,volume,issue,author name,number of authors,author number,title,subfield of article (if journal is general),type,method,coder,subfield tagging,type tagging,method tagging
Language Acquisition,2016,23,1,Spyridoula Varlokosta,38,1,A cross-linguistic study of the acquisition of clitic and pronoun production,L1 acquisition & morphology & syntax,research,experimental,Laurel,manual,manual,manual
Language Acquisition,2016,23,1,Adriana Belletti,38,2,A cross-linguistic study of the acquisition of clitic and pronoun production,L1 acquisition & morphology & syntax,research,experimental,Laurel,manual,manual,manual
Language Acquisition,2016,23,1,João Costa,38,3,A cross-linguistic study of the acquisition of clitic and pronoun production,L1 acquisition & morphology & syntax,research,experimental,Laurel,manual,manual,manual
Language Acquisition,2016,23,1,Naama Friedmann,38,4,A cross-linguistic study of the acquisition of clitic and pronoun production,L1 acquisition & morphology & syntax,research,experimental,Laurel,manual,manual,manual
Language Acquisition,2016,23,1,Anna Gavarró,38,5,A cross-linguistic study of the acquisition of clitic and pronoun production,L1 acquisition & morphology & syntax,research,experimental,Laurel,manual,manual,manual
Language Acquisition,2016,23,1,Kleanthes K. Grohmann,38,6,A cross-linguistic study of the acquisition of clitic and pronoun production,L1 acquisition & morphology & syntax,research,experimental,Laurel,manual,manual,manual
Language Acquisition,2016,23,1,Maria Teresa Guasti,38,7,A cross-linguistic study of the acquisition of clitic and pronoun production,L1 acquisition & morphology & syntax,research,experimental,Laurel,manual,manual,manual
Language Acquisition,2016,23,1,Laurice Tuller,38,8,A cross-linguistic study of the acquisition of clitic and pronoun production,L1 acquisition & morphology & syntax,research,experimental,Laurel,manual,manual,manual
Language Acquisition,2016,23,1,Maria Lobo,38,9,A cross-linguistic study of the acquisition of clitic and pronoun production,L1 acquisition & morphology & syntax,research,experimental,Laurel,manual,manual,manual
Language Acquisition,2016,23,1,Darinka Anđelković,38,10,A cross-linguistic study of the acquisition of clitic and pronoun production,L1 acquisition & morphology & syntax,research,experimental,Laurel,manual,manual,manual
Language Acquisition,2016,23,1,Núria Argemí,38,11,A cross-linguistic study of the acquisition of clitic and pronoun production,L1 acquisition & morphology & syntax,research,experimental,Laurel,manual,manual,manual
Language Acquisition,2016,23,1,Larisa Avram,38,12,A cross-linguistic study of the acquisition of clitic and pronoun production,L1 acquisition & morphology & syntax,research,experimental,Laurel,manual,manual,manual
Language Acquisition,2016,23,1,Sanne Berends,38,13,A cross-linguistic study of the acquisition of clitic and pronoun production,L1 acquisition & morphology & syntax,research,experimental,Laurel,manual,manual,manual
Language Acquisition,2016,23,1,Valentina Brunetto,38,14,A cross-linguistic study of the acquisition of clitic and pronoun production,L1 acquisition & morphology & syntax,research,experimental,Laurel,manual,manual,manual
Language Acquisition,2016,23,1,Hélène Delage,38,15,A cross-linguistic study of the acquisition of clitic and pronoun production,L1 acquisition & morphology & syntax,research,experimental,Laurel,manual,manual,manual
Language Acquisition,2016,23,1,María-José Ezeizabarrena,38,16,A cross-linguistic study of the acquisition of clitic and pronoun production,L1 acquisition & morphology & syntax,research,experimental,Laurel,manual,manual,manual
Language Acquisition,2016,23,1,Iris Fattal,38,17,A cross-linguistic study of the acquisition of clitic and pronoun production,L1 acquisition & morphology & syntax,research,experimental,Laurel,manual,manual,manual
Language Acquisition,2016,23,1,Ewa Haman,38,18,A cross-linguistic study of the acquisition of clitic and pronoun production,L1 acquisition & morphology & syntax,research,experimental,Laurel,manual,manual,manual
Language Acquisition,2016,23,1,Angeliek van Hout,38,19,A cross-linguistic study of the acquisition of clitic and pronoun production,L1 acquisition & morphology & syntax,research,experimental,Laurel,manual,manual,manual
Language Acquisition,2016,23,1,Kristine Jensen de López,38,20,A cross-linguistic study of the acquisition of clitic and pronoun production,L1 acquisition & morphology & syntax,research,experimental,Laurel,manual,manual,manual
Language Acquisition,2016,23,1,Napoleon Katsos,38,21,A cross-linguistic study of the acquisition of clitic and pronoun production,L1 acquisition & morphology & syntax,research,experimental,Laurel,manual,manual,manual
Language Acquisition,2016,23,1,Lana Kologranic,38,22,A cross-linguistic study of the acquisition of clitic and pronoun production,L1 acquisition & morphology & syntax,research,experimental,Laurel,manual,manual,manual
Language Acquisition,2016,23,1,Nadezda Krstić,38,23,A cross-linguistic study of the acquisition of clitic and pronoun production,L1 acquisition & morphology & syntax,research,experimental,Laurel,manual,manual,manual
Language Acquisition,2016,23,1,Jelena Kuvac Kraljevic,38,24,A cross-linguistic study of the acquisition of clitic and pronoun production,L1 acquisition & morphology & syntax,research,experimental,Laurel,manual,manual,manual
Language Acquisition,2016,23,1,Aneta Miękisz,38,25,A cross-linguistic study of the acquisition of clitic and pronoun production,L1 acquisition & morphology & syntax,research,experimental,Laurel,manual,manual,manual
Language Acquisition,2016,23,1,Michaela Nerantzini,38,26,A cross-linguistic study of the acquisition of clitic and pronoun production,L1 acquisition & morphology & syntax,research,experimental,Laurel,manual,manual,manual
Language Acquisition,2016,23,1,Clara Queraltó,38,27,A cross-linguistic study of the acquisition of clitic and pronoun production,L1 acquisition & morphology & syntax,research,experimental,Laurel,manual,manual,manual
Language Acquisition,2016,23,1,Zeljana Radic,38,28,A cross-linguistic study of the acquisition of clitic and pronoun production,L1 acquisition & morphology & syntax,research,experimental,Laurel,manual,manual,manual
Language Acquisition,2016,23,1,Sílvia Ruiz,38,29,A cross-linguistic study of the acquisition of clitic and pronoun production,L1 acquisition & morphology & syntax,research,experimental,Laurel,manual,manual,manual
Language Acquisition,2016,23,1,Uli Sauerland,38,30,A cross-linguistic study of the acquisition of clitic and pronoun production,L1 acquisition & morphology & syntax,research,experimental,Laurel,manual,manual,manual
Language Acquisition,2016,23,1,Anca Sevcenco,38,31,A cross-linguistic study of the acquisition of clitic and pronoun production,L1 acquisition & morphology & syntax,research,experimental,Laurel,manual,manual,manual
Language Acquisition,2016,23,1,Magdalena Smoczyńska,38,32,A cross-linguistic study of the acquisition of clitic and pronoun production,L1 acquisition & morphology & syntax,research,experimental,Laurel,manual,manual,manual
Language Acquisition,2016,23,1,Eleni Theodorou,38,33,A cross-linguistic study of the acquisition of clitic and pronoun production,L1 acquisition & morphology & syntax,research,experimental,Laurel,manual,manual,manual
Language Acquisition,2016,23,1,Heather van der Lely,38,34,A cross-linguistic study of the acquisition of clitic and pronoun production,L1 acquisition & morphology & syntax,research,experimental,Laurel,manual,manual,manual
Language Acquisition,2016,23,1,Alma Veenstra,38,35,A cross-linguistic study of the acquisition of clitic and pronoun production,L1 acquisition & morphology & syntax,research,experimental,Laurel,manual,manual,manual
Language Acquisition,2016,23,1,John Weston,38,36,A cross-linguistic study of the acquisition of clitic and pronoun production,L1 acquisition & morphology & syntax,research,experimental,Laurel,manual,manual,manual
Language Acquisition,2016,23,1,Maya Yachini,38,37,A cross-linguistic study of the acquisition of clitic and pronoun production,L1 acquisition & morphology & syntax,research,experimental,Laurel,manual,manual,manual
Language Acquisition,2016,23,1,Kazuko Yatsushiro,38,38,A cross-linguistic study of the acquisition of clitic and pronoun production,L1 acquisition & morphology & syntax,research,experimental,Laurel,manual,manual,manual
Language Acquisition,2016,23,1,Sharon Armon-Lotem,19,1,A large-scale cross-linguistic investigation of the acquisition of passive,L1 acquisition & morphology & syntax,research,experimental,Laurel,manual,manual,manual
Language Acquisition,2016,23,1,Ewa Haman,19,2,A large-scale cross-linguistic investigation of the acquisition of passive,L1 acquisition & morphology & syntax,research,experimental,Laurel,manual,manual,manual
Language Acquisition,2016,23,1,Kristine Jensen de López,19,3,A large-scale cross-linguistic investigation of the acquisition of passive,L1 acquisition & morphology & syntax,research,experimental,Laurel,manual,manual,manual
Language Acquisition,2016,23,1,Magdalena Smoczynska,19,4,A large-scale cross-linguistic investigation of the acquisition of passive,L1 acquisition & morphology & syntax,research,experimental,Laurel,manual,manual,manual
Language Acquisition,2016,23,1,Kazuko Yatsushiro,19,5,A large-scale cross-linguistic investigation of the acquisition of passive,L1 acquisition & morphology & syntax,research,experimental,Laurel,manual,manual,manual
Language Acquisition,2016,23,1,Marcin Szczerbinski,19,6,A large-scale cross-linguistic investigation of the acquisition of passive,L1 acquisition & morphology & syntax,research,experimental,Laurel,manual,manual,manual
Language Acquisition,2016,23,1,Angeliek van Hout,19,7,A large-scale cross-linguistic investigation of the acquisition of passive,L1 acquisition & morphology & syntax,research,experimental,Laurel,manual,manual,manual
Language Acquisition,2016,23,1,Ineta Dabašinskienė,19,8,A large-scale cross-linguistic investigation of the acquisition of passive,L1 acquisition & morphology & syntax,research,experimental,Laurel,manual,manual,manual
Language Acquisition,2016,23,1,Anna Gavarró,19,9,A large-scale cross-linguistic investigation of the acquisition of passive,L1 acquisition & morphology & syntax,research,experimental,Laurel,manual,manual,manual
Language Acquisition,2016,23,1,Erin Hobbs,19,10,A large-scale cross-linguistic investigation of the acquisition of passive,L1 acquisition & morphology & syntax,research,experimental,Laurel,manual,manual,manual
Language Acquisition,2016,23,1,Laura Kamandulytė-Merfeldienė,19,11,A large-scale cross-linguistic investigation of the acquisition of passive,L1 acquisition & morphology & syntax,research,experimental,Laurel,manual,manual,manual
Language Acquisition,2016,23,1,Napoleon Katsos,19,12,A large-scale cross-linguistic investigation of the acquisition of passive,L1 acquisition & morphology & syntax,research,experimental,Laurel,manual,manual,manual
Language Acquisition,2016,23,1,Sari Kunnari,19,13,A large-scale cross-linguistic investigation of the acquisition of passive,L1 acquisition & morphology & syntax,research,experimental,Laurel,manual,manual,manual
Language Acquisition,2016,23,1,Chrisa Nitsiou,19,14,A large-scale cross-linguistic investigation of the acquisition of passive,L1 acquisition & morphology & syntax,research,experimental,Laurel,manual,manual,manual
Language Acquisition,2016,23,1,Lone Sundahl Olsen,19,15,A large-scale cross-linguistic investigation of the acquisition of passive,L1 acquisition & morphology & syntax,research,experimental,Laurel,manual,manual,manual
Language Acquisition,2016,23,1,Xavier Parramon,19,16,A large-scale cross-linguistic investigation of the acquisition of passive,L1 acquisition & morphology & syntax,research,experimental,Laurel,manual,manual,manual
Language Acquisition,2016,23,1,Uli Sauerland,19,17,A large-scale cross-linguistic investigation of the acquisition of passive,L1 acquisition & morphology & syntax,research,experimental,Laurel,manual,manual,manual
Language Acquisition,2016,23,1,Reeli Torn-Leesik,19,18,A large-scale cross-linguistic investigation of the acquisition of passive,L1 acquisition & morphology & syntax,research,experimental,Laurel,manual,manual,manual
Language Acquisition,2016,23,1,Heather van der Lely,19,19,A large-scale cross-linguistic investigation of the acquisition of passive,L1 acquisition & morphology & syntax,research,experimental,Laurel,manual,manual,manual
Language Acquisition,2016,23,1,Alexandra Morales-Reyes,2,1,Transfer and semantic universals in the L2 acquisition of the English article system by child L2 learners,L2 acquisition & syntax & semantics,research,experimental,Laurel,manual,manual,manual
Language Acquisition,2016,23,1,Inmaculada Gómez Soler,2,2,Transfer and semantic universals in the L2 acquisition of the English article system by child L2 learners,L2 acquisition & syntax & semantics,research,experimental,Laurel,manual,manual,manual
Language Acquisition,2016,23,1,Koji Sugisaki,1,1,Quantifier float and structure dependence in child Japanese,L1 acquisition & syntax,brief article,experimental,Laurel,manual,manual,manual
Language Acquisition,2016,23,2,Suzanne V. H. van der Feest,2,1,Input-driven differences in toddlers’ perception of a disappearing phonological contrast,L1 acquisition & phonology,research,experimental,Laurel,manual,manual,manual
Language Acquisition,2016,23,2,Elizabeth K. Johnson,2,2,Input-driven differences in toddlers’ perception of a disappearing phonological contrast,L1 acquisition & phonology,research,experimental,Laurel,manual,manual,manual
Language Acquisition,2016,23,2,Jinsun Choe,2,1,Children’s difficulty with raising: A performance account,L1 acquisition & syntax,research,experimental,Laurel,manual,manual,manual
Language Acquisition,2016,23,2,Kamil Deen,2,2,Children’s difficulty with raising: A performance account,L1 acquisition & syntax,research,experimental,Laurel,manual,manual,manual
Language Acquisition,2016,23,2,Maria Lobo,3,1,Syntactic structure and information structure: The acquisition of Portuguese clefts and Be-fragments,L1 acquisition & syntax,research,experimental,Laurel,manual,manual,manual
Language Acquisition,2016,23,2,Ana Lúcia Santos,3,2,Syntactic structure and information structure: The acquisition of Portuguese clefts and Be-fragments,L1 acquisition & syntax,research,experimental,Laurel,manual,manual,manual
Language Acquisition,2016,23,2,Carla Soares-Jesel,3,3,Syntactic structure and information structure: The acquisition of Portuguese clefts and Be-fragments,L1 acquisition & syntax,research,experimental,Laurel,manual,manual,manual
Language Acquisition,2016,23,2,Kristen Syrett,2,1,All together now: Disentangling semantics and pragmatics with together in child and adult language,L1 acquisition & semantics,research,experimental,Laurel,manual,manual,manual
Language Acquisition,2016,23,2,Julien Musolino,2,2,All together now: Disentangling semantics and pragmatics with together in child and adult language,L1 acquisition & semantics,research,experimental,Laurel,manual,manual,manual
Language Acquisition,2016,23,3,Ana Lúcia Santos,3,1,Aspects of the acquisition of object control and ECM-Type verbs in European Portuguese,L1 acquisition & syntax,research,experimental,Laurel,manual,manual,manual
Language Acquisition,2016,23,3,Anabela Gonçalves,3,2,Aspects of the acquisition of object control and ECM-Type verbs in European Portuguese,L1 acquisition & syntax,research,experimental,Laurel,manual,manual,manual
Language Acquisition,2016,23,3,Nina Hyams,3,3,Aspects of the acquisition of object control and ECM-Type verbs in European Portuguese,L1 acquisition & syntax,research,experimental,Laurel,manual,manual,manual
Language Acquisition,2016,23,3,Annie Gagliardi,3,1,Discontinuous development in the acquisition of filler-gap dependencies: Evidence from 15- and 20-month-olds,L1 acquisition & syntax,research,experimental,Laurel,manual,manual,manual
Language Acquisition,2016,23,3,Tara M. Mease,3,2,Discontinuous development in the acquisition of filler-gap dependencies: Evidence from 15- and 20-month-olds,L1 acquisition & syntax,research,experimental,Laurel,manual,manual,manual
Language Acquisition,2016,23,3,Jeffrey Lidz,3,3,Discontinuous development in the acquisition of filler-gap dependencies: Evidence from 15- and 20-month-olds,L1 acquisition & syntax,research,experimental,Laurel,manual,manual,manual
Language Acquisition,2016,23,3,Tamirand Nnena De Lisser,4,1,The acquisition of Jamaican Creole: Null subject phenomenon,L1 acquisition & syntax,research,corpus-based,Laurel,manual,manual,manual
Language Acquisition,2016,23,3,Stephanie Durrleman,4,2,The acquisition of Jamaican Creole: Null subject phenomenon,L1 acquisition & syntax,research,corpus-based,Laurel,manual,manual,manual
Language Acquisition,2016,23,3,Luigi Rizzi,4,3,The acquisition of Jamaican Creole: Null subject phenomenon,L1 acquisition & syntax,research,corpus-based,Laurel,manual,manual,manual
Language Acquisition,2016,23,3,Ur Shlonsky,4,4,The acquisition of Jamaican Creole: Null subject phenomenon,L1 acquisition & syntax,research,corpus-based,Laurel,manual,manual,manual
Language Acquisition,2016,23,3,Matthew Rispoli,1,1,Cross-morpheme facilitation: The systematic emergence of agreement in 2-year-olds,L1 acquisition & morphology & syntax,research,corpus-based,Laurel,manual,manual,manual
Language Acquisition,2016,23,4,Lyn Tieu,2,1,NPI Licensing and Beyond: Children’s Knowledge of the Semantics of Any,L1 acquisition & semantics,research,experimental,Laurel,manual,manual,manual
Language Acquisition,2016,23,4,Jeffrey Lidz,2,2,NPI Licensing and Beyond: Children’s Knowledge of the Semantics of Any,L1 acquisition & semantics,research,experimental,Laurel,manual,manual,manual
Language Acquisition,2016,23,4,Natalia Rakhlin,4,1,Syntactic Complexity Effects of Russian Relative Clause Sentences in Children with and without Developmental Language Disorder,L1 acquisition & syntax & language disorders,research,experimental,Laurel,manual,manual,manual
Language Acquisition,2016,23,4,Sergey A. Kornilov,4,2,Syntactic Complexity Effects of Russian Relative Clause Sentences in Children with and without Developmental Language Disorder,L1 acquisition & syntax & language disorders,research,experimental,Laurel,manual,manual,manual
Language Acquisition,2016,23,4,Tatiana V. Kornilova,4,3,Syntactic Complexity Effects of Russian Relative Clause Sentences in Children with and without Developmental Language Disorder,L1 acquisition & syntax & language disorders,research,experimental,Laurel,manual,manual,manual
Language Acquisition,2016,23,4,Elena L. Grigorenko,4,4,Syntactic Complexity Effects of Russian Relative Clause Sentences in Children with and without Developmental Language Disorder,L1 acquisition & syntax & language disorders,research,experimental,Laurel,manual,manual,manual
Language Acquisition,2016,23,4,Stephanie Durrleman,2,1,Autism Spectrum Disorder and Specific Language Impairment: Overlaps in Syntactic Profiles,L1 acquisition & syntax & language disorders & autism,research,experimental,Laurel,manual,manual,manual
Language Acquisition,2016,23,4,Hélène Delage,2,2,Autism Spectrum Disorder and Specific Language Impairment: Overlaps in Syntactic Profiles,L1 acquisition & syntax & language disorders & autism,research,experimental,Laurel,manual,manual,manual
Language Acquisition,2016,23,4,Elisabet Pladevall-Ballester,1,1,Developmental Asynchrony in the Acquisition of Subject Properties in Child L2 English and Spanish,L2 acquisition & syntax,research,experimental,Laurel,manual,manual,manual
Language Acquisition,2016,23,4,Adrienne Johnson,2,1,Children’s Knowledge of Structure-Dependent Semantic Interactions Between Logical Words,L1 acquisition & semantics,brief article,experimental,Laurel,manual,manual,manual
Language Acquisition,2016,23,4,Utako Minai,2,2,Children’s Knowledge of Structure-Dependent Semantic Interactions Between Logical Words,L1 acquisition & semantics,brief article,experimental,Laurel,manual,manual,manual